%!PS-Adobe-2.0 
%%Creator: MATLAB, The Mathworks, Inc. Version 7.10.0.499 (R2010a). Operating System: Linux 3.0.0-16-generic-pae #29-Ubuntu SMP Tue Feb 14 13:56:31 UTC 2012 i686.
%%Title: /home/fris/SYSLAB_PV_FH_control_EXP_Chart.psc
%%CreationDate: 03/29/2012  09:40:10
%%DocumentNeededFonts: Helvetica
%%+ Helvetica-Oblique
%%DocumentProcessColors: Cyan Magenta Yellow Black
%%Extensions: CMYK
%%Pages: (atend)
%%BoundingBox: (atend)
%%EndComments

%%BeginProlog
% MathWorks dictionary
/MathWorks 160 dict begin
% definition operators
/bdef {bind def} bind def
/ldef {load def} bind def
/xdef {exch def} bdef
/xstore {exch store} bdef
% operator abbreviations
/c  /clip ldef
/cc /concat ldef
/cp /closepath ldef
/gr /grestore ldef
/gs /gsave ldef
/mt /moveto ldef
/np /newpath ldef
/cm /currentmatrix ldef
/sm /setmatrix ldef
/rm /rmoveto ldef
/rl /rlineto ldef
/s {show newpath} bdef
/sc {setcmykcolor} bdef
/sr /setrgbcolor ldef
/sg /setgray ldef
/w /setlinewidth ldef
/j /setlinejoin ldef
/cap /setlinecap ldef
/rc {rectclip} bdef
/rf {rectfill} bdef
% page state control
/pgsv () def
/bpage {/pgsv save def} bdef
/epage {pgsv restore} bdef
/bplot /gsave ldef
/eplot {stroke grestore} bdef
% orientation switch
/portraitMode 0 def /landscapeMode 1 def /rotateMode 2 def
% coordinate system mappings
/dpi2point 0 def
% font control
/FontSize 0 def
/FMS {/FontSize xstore findfont [FontSize 0 0 FontSize neg 0 0]
  makefont setfont} bdef
/reencode {exch dup where {pop load} {pop StandardEncoding} ifelse
  exch dup 3 1 roll findfont dup length dict begin
  { 1 index /FID ne {def}{pop pop} ifelse } forall
  /Encoding exch def currentdict end definefont pop} bdef
/isroman {findfont /CharStrings get /Agrave known} bdef
/FMSR {3 1 roll 1 index dup isroman {reencode} {pop pop} ifelse
  exch FMS} bdef
/csm {1 dpi2point div -1 dpi2point div scale neg translate
 dup landscapeMode eq {pop -90 rotate}
  {rotateMode eq {90 rotate} if} ifelse} bdef
% line types: solid, dotted, dashed, dotdash
/SO { [] 0 setdash } bdef
/DO { [.5 dpi2point mul 4 dpi2point mul] 0 setdash } bdef
/DA { [6 dpi2point mul] 0 setdash } bdef
/DD { [.5 dpi2point mul 4 dpi2point mul 6 dpi2point mul 4
  dpi2point mul] 0 setdash } bdef
% macros for lines and objects
/L {lineto stroke} bdef
/MP {3 1 roll moveto 1 sub {rlineto} repeat} bdef
/AP {{rlineto} repeat} bdef
/PDlw -1 def
/W {/PDlw currentlinewidth def setlinewidth} def
/PP {closepath eofill} bdef
/DP {closepath stroke} bdef
/MR {4 -2 roll moveto dup  0 exch rlineto exch 0 rlineto
  neg 0 exch rlineto closepath} bdef
/FR {MR stroke} bdef
/PR {MR fill} bdef
/L1i {{currentfile picstr readhexstring pop} image} bdef
/tMatrix matrix def
/MakeOval {newpath tMatrix currentmatrix pop translate scale
0 0 1 0 360 arc tMatrix setmatrix} bdef
/FO {MakeOval stroke} bdef
/PO {MakeOval fill} bdef
/PD {currentlinewidth 2 div 0 360 arc fill
   PDlw -1 eq not {PDlw w /PDlw -1 def} if} def
/FA {newpath tMatrix currentmatrix pop translate scale
  0 0 1 5 -2 roll arc tMatrix setmatrix stroke} bdef
/PA {newpath tMatrix currentmatrix pop	translate 0 0 moveto scale
  0 0 1 5 -2 roll arc closepath tMatrix setmatrix fill} bdef
/FAn {newpath tMatrix currentmatrix pop translate scale
  0 0 1 5 -2 roll arcn tMatrix setmatrix stroke} bdef
/PAn {newpath tMatrix currentmatrix pop translate 0 0 moveto scale
  0 0 1 5 -2 roll arcn closepath tMatrix setmatrix fill} bdef
/vradius 0 def /hradius 0 def /lry 0 def
/lrx 0 def /uly 0 def /ulx 0 def /rad 0 def
/MRR {/vradius xdef /hradius xdef /lry xdef /lrx xdef /uly xdef
  /ulx xdef newpath tMatrix currentmatrix pop ulx hradius add uly
  vradius add translate hradius vradius scale 0 0 1 180 270 arc 
  tMatrix setmatrix lrx hradius sub uly vradius add translate
  hradius vradius scale 0 0 1 270 360 arc tMatrix setmatrix
  lrx hradius sub lry vradius sub translate hradius vradius scale
  0 0 1 0 90 arc tMatrix setmatrix ulx hradius add lry vradius sub
  translate hradius vradius scale 0 0 1 90 180 arc tMatrix setmatrix
  closepath} bdef
/FRR {MRR stroke } bdef
/PRR {MRR fill } bdef
/MlrRR {/lry xdef /lrx xdef /uly xdef /ulx xdef /rad lry uly sub 2 div def
  newpath tMatrix currentmatrix pop ulx rad add uly rad add translate
  rad rad scale 0 0 1 90 270 arc tMatrix setmatrix lrx rad sub lry rad
  sub translate rad rad scale 0 0 1 270 90 arc tMatrix setmatrix
  closepath} bdef
/FlrRR {MlrRR stroke } bdef
/PlrRR {MlrRR fill } bdef
/MtbRR {/lry xdef /lrx xdef /uly xdef /ulx xdef /rad lrx ulx sub 2 div def
  newpath tMatrix currentmatrix pop ulx rad add uly rad add translate
  rad rad scale 0 0 1 180 360 arc tMatrix setmatrix lrx rad sub lry rad
  sub translate rad rad scale 0 0 1 0 180 arc tMatrix setmatrix
  closepath} bdef
/FtbRR {MtbRR stroke } bdef
/PtbRR {MtbRR fill } bdef
/stri 6 array def /dtri 6 array def
/smat 6 array def /dmat 6 array def
/tmat1 6 array def /tmat2 6 array def /dif 3 array def
/asub {/ind2 exch def /ind1 exch def dup dup
  ind1 get exch ind2 get sub exch } bdef
/tri_to_matrix {
  2 0 asub 3 1 asub 4 0 asub 5 1 asub
  dup 0 get exch 1 get 7 -1 roll astore } bdef
/compute_transform {
  dmat dtri tri_to_matrix tmat1 invertmatrix 
  smat stri tri_to_matrix tmat2 concatmatrix } bdef
/ds {stri astore pop} bdef
/dt {dtri astore pop} bdef
/db {2 copy /cols xdef /rows xdef mul dup 3 mul string
  currentfile exch readhexstring pop
  dup 0 3 index getinterval /rbmap xdef
  dup 2 index dup getinterval /gbmap xdef
  1 index dup 2 mul exch getinterval /bbmap xdef pop pop}bdef
/it {gs np dtri aload pop moveto lineto lineto cp c
  cols rows 8 compute_transform 
  rbmap gbmap bbmap true 3 colorimage gr}bdef
/il {newpath moveto lineto stroke}bdef
currentdict end def
%%EndProlog

%%BeginSetup
MathWorks begin

0 cap

end
%%EndSetup

%%Page: 1 1
%%BeginPageSetup
%%PageBoundingBox:    -6     0   595   848
MathWorks begin
bpage
%%EndPageSetup

%%BeginObject: obj1
bplot

/dpi2point 12 def
landscapeMode -0024 0000 csm

    0   -48 10177  7213 MR c np
90 dict begin %Colortable dictionary
/c0 { 0.000000 0.000000 0.000000 sr} bdef
/c1 { 1.000000 1.000000 1.000000 sr} bdef
/c2 { 0.900000 0.000000 0.000000 sr} bdef
/c3 { 0.000000 0.820000 0.000000 sr} bdef
/c4 { 0.000000 0.000000 0.800000 sr} bdef
/c5 { 0.910000 0.820000 0.320000 sr} bdef
/c6 { 1.000000 0.260000 0.820000 sr} bdef
/c7 { 0.000000 0.820000 0.820000 sr} bdef
c0
1 j
1 sg
   0    0 10144 7177 PR
6 w
gs 0 0 10141 7176 MR c np
0 -7164 -10128 0 0 7164 10128 0 0 0 5 MP
PP
gr

gs 0 0 10141 7176 MR c np
/c8 { 1.000000 0.960784 0.882353 sr} bdef
c8
0 -7158 -10122 0 0 7158 10122 0 3 -3 5 MP
PP
gr

c8
gs 429 979 9272 5209 MR c np
4.8 w
0 sg
0 0 -1950 0 -62 -12 -50 -34 -34 -50 -13 -61 0 -1182 13 -62 
34 -49 50 -34 62 -12 1950 0 62 12 50 34 34 49 13 62 
0 1182 -13 61 -34 50 -50 34 -62 12 1560 1031 22 MP stroke
%%IncludeResource: font Helvetica
/Helvetica /ISOLatin1Encoding 168 FMSR

1470 1184 mt 
(VOver_control) s
1470 1360 mt 
(en:PH = Pi +) s
/c9 { 0.901961 0.000000 0.901961 sr} bdef
c9
2468 1360 mt 
(1) s
0 sg
0 0 -1841 0 -59 -11 -47 -32 -32 -47 -12 -57 0 -1112 12 -57 
32 -47 47 -32 59 -11 1841 0 58 11 48 32 32 47 12 57 
0 1112 -12 57 -32 47 -48 32 -58 11 7679 1072 22 MP stroke
7587 1228 mt 
(VUnder_control) s
7587 1404 mt 
(en:PH=Pi-) s
c9
8409 1404 mt 
(1) s
0 sg
0 0 -6100 0 -92 -9 -85 -27 -78 -43 -67 -57 -56 -68 -42 -79 
-26 -87 -10 -93 0 -1579 10 -94 26 -87 42 -78 56 -69 67 -57 
78 -42 85 -27 92 -10 6100 0 92 10 86 27 77 42 67 57 
56 69 42 78 27 87 9 94 0 1579 -9 93 -27 87 -42 79 
-56 68 -67 57 -77 43 -86 27 -92 9 1891 3226 38 MP stroke
1661 3487 mt 
(Tcontrol) s
/c10 { 0.901961 0.862745 0.784314 sr} bdef
c10
-1389 0 -44 -9 -36 -23 -24 -36 -9 -43 0 -1010 9 -44 24 -35 
36 -24 44 -8 1389 0 44 8 36 24 24 35 9 44 0 1010 
-9 43 -24 36 -36 23 -44 9 1711 3817 21 MP
PP
14.4 w
0 sg
0 0 -1389 0 -44 -9 -36 -23 -24 -36 -9 -43 0 -1010 9 -44 
24 -35 36 -24 44 -8 1389 0 44 8 36 24 24 35 9 44 
0 1010 -9 43 -24 36 -36 23 -44 9 1711 3817 22 MP stroke
1646 3957 mt 
(on) s
1646 4133 mt 
(en: PH = Pi +) s
c9
2688 4133 mt 
(1) s
4.8 w
0 sg
0 0 -1009 0 -32 -6 -26 -18 -18 -27 -6 -33 0 -958 6 -32 
18 -27 26 -18 32 -7 1009 0 32 7 26 18 18 27 6 32 
0 958 -6 33 -18 27 -26 18 -32 6 7109 3948 22 MP stroke
7059 4089 mt 
(off) s
7059 4265 mt 
(en:PH = Pi -) s
c9
8013 4265 mt 
(1) s
0 sg
0 0 -1538 0 -49 -10 -40 -26 -26 -39 -10 -48 0 -926 10 -48 
26 -39 40 -26 49 -10 1538 0 49 10 40 26 27 39 10 48 
0 926 -10 48 -27 39 -40 26 -49 10 4118 3958 22 MP stroke
4052 4103 mt 
(same) s
4052 4279 mt 
(du:PH = Pi) s
/c11 { 0.290196 0.329412 0.603922 sr} bdef
c11
35 0 -35 -118 -35 118 35 0 2 104 7 106 12 106 17 108 
23 108 29 108 35 107 42 108 48 106 54 105 60 102 67 100 
72 96 78 92 83 86 88 80 92 74 96 65 100 56 101 46 
104 34 104 22 104 7 3669 1182 28 MP stroke
c8
0 -117 -88 0 0 117 88 0 3741 1141 5 MP
PP
0 0 0 -117 -88 0 0 117 88 0 3741 1141 6 MP stroke
c11
4360 1859 mt 
([Vbus<VmaxLow]) s
%%IncludeResource: font Helvetica-Oblique
/Helvetica-Oblique /ISOLatin1Encoding 144 FMSR

3741 1251 mt 
(1) s
35 0 -35 -118 -35 118 35 0 0 93 -1 93 -2 94 -5 95 
-8 96 -11 97 -16 99 -21 99 -26 101 -31 101 -37 101 -42 100 
-49 99 -54 96 -60 92 -66 88 -71 81 -76 74 -81 65 -84 54 
-88 41 -91 26 -92 9 7529 1214 28 MP stroke
c8
0 -118 -88 0 0 118 88 0 7341 1180 5 MP
PP
0 0 0 -118 -88 0 0 118 88 0 7341 1180 6 MP stroke
c11
%%IncludeResource: font Helvetica
/Helvetica /ISOLatin1Encoding 168 FMSR

6047 1873 mt 
([Vbus>VminHigh]) s
%%IncludeResource: font Helvetica-Oblique
/Helvetica-Oblique /ISOLatin1Encoding 144 FMSR

7341 1290 mt 
(1) s
0 35 117 -35 -117 -36 0 36 -48 -7 -46 -18 -42 -28 -39 -37 
-36 -43 -32 -49 -28 -52 -25 -56 -21 -57 -18 -58 -14 -59 -11 -58 
-9 -57 -5 -55 -3 -55 -1 -52 1 -51 3 -49 3 -48 3 -48 
3 -47 3 -47 1 -49 4147 3226 28 MP stroke
c8
0 -117 -88 0 0 117 88 0 4093 3035 5 MP
PP
0 0 0 -117 -88 0 0 117 88 0 4093 3035 6 MP stroke
/c12 { 0.000000 0.000000 1.000000 sr} bdef
c12
%%IncludeResource: font Helvetica
/Helvetica /ISOLatin1Encoding 168 FMSR

2893 3047 mt 
(after) s
c11
3245 3047 mt 
(\() s
c9
3304 3047 mt 
(5) s
c11
3406 3047 mt 
(,) s
/c13 { 0.780392 0.501961 0.000000 sr} bdef
c13
3450 3047 mt 
(Ts) s
c11
3641 3047 mt 
(\)[Vbus>VmaxHigh]) s
%%IncludeResource: font Helvetica-Oblique
/Helvetica-Oblique /ISOLatin1Encoding 144 FMSR

4093 3145 mt 
(1) s
0 -35 -117 35 117 35 0 -35 42 -5 40 -14 39 -22 36 -28 
34 -34 31 -39 29 -42 25 -44 23 -47 20 -47 16 -49 14 -48 
11 -48 9 -48 6 -46 4 -46 2 -45 0 -86 -2 -42 -1 -42 
-2 -42 0 -42 7036 3226 27 MP stroke
c8
0 -117 -88 0 0 117 88 0 6974 3035 5 MP
PP
0 0 0 -117 -88 0 0 117 88 0 6974 3035 6 MP stroke
c12
%%IncludeResource: font Helvetica
/Helvetica /ISOLatin1Encoding 168 FMSR

5563 2842 mt 
(after) s
c11
5915 2842 mt 
(\() s
c9
5973 2842 mt 
(5) s
c11
6076 2842 mt 
(,) s
c13
6120 2842 mt 
(Ts) s
c11
6311 2842 mt 
(\)[Vbus<VminLow]) s
%%IncludeResource: font Helvetica-Oblique
/Helvetica-Oblique /ISOLatin1Encoding 144 FMSR

6974 3145 mt 
(2) s
-35 0 35 118 36 -118 -36 0 -8 -55 -24 -48 -39 -42 -50 -36 
-60 -31 -69 -24 -76 -19 -81 -13 -85 -7 -87 -3 -87 3 -87 7 
-85 13 -81 17 -77 22 -72 27 -65 31 -57 35 -49 40 -39 44 
-29 48 -18 52 -6 57 9512 2478 28 MP stroke
c8
0 -117 -88 0 0 117 88 0 9425 2549 5 MP
PP
0 0 0 -117 -88 0 0 117 88 0 9425 2549 6 MP stroke
c12
%%IncludeResource: font Helvetica
/Helvetica /ISOLatin1Encoding 168 FMSR

8746 2988 mt 
(after) s
c11
9098 2988 mt 
(\() s
c9
9157 2988 mt 
(5) s
c11
9259 2988 mt 
(,) s
c13
9303 2988 mt 
(Ts) s
c11
9494 2988 mt 
(\)) s
%%IncludeResource: font Helvetica-Oblique
/Helvetica-Oblique /ISOLatin1Encoding 144 FMSR

9425 2659 mt 
(2) s
-35 0 35 118 35 -118 -35 0 9 -58 25 -51 40 -46 53 -40 
63 -33 72 -28 79 -21 84 -16 89 -9 90 -4 92 2 91 7 
89 14 85 18 81 24 75 29 68 34 61 39 51 43 41 47 
31 52 19 55 6 60 1682 2527 28 MP stroke
c8
0 -117 -88 0 0 117 88 0 1652 2598 5 MP
PP
0 0 0 -117 -88 0 0 117 88 0 1652 2598 6 MP stroke
c12
%%IncludeResource: font Helvetica
/Helvetica /ISOLatin1Encoding 168 FMSR

2013 2724 mt 
(after) s
c11
2365 2724 mt 
(\() s
c9
2424 2724 mt 
(5) s
c11
2526 2724 mt 
(,) s
c13
2570 2724 mt 
(Ts) s
c11
2761 2724 mt 
(\)) s
%%IncludeResource: font Helvetica-Oblique
/Helvetica-Oblique /ISOLatin1Encoding 144 FMSR

1652 2708 mt 
(2) s
0 -35 -117 35 117 35 0 -35 14 0 14 0 14 0 14 0 
14 0 15 0 14 0 14 0 14 0 14 0 14 0 14 0 
14 0 14 0 14 0 14 0 14 0 14 0 14 0 14 0 
14 0 14 0 14 0 995 3749 28 MP stroke
0 j
  42   42 1002 3756 PO
  42   42 1002 3756 FO
1 j
36 0 -36 -118 -35 118 35 0 0 322 4794 3518 6 MP stroke
0 j
  42   42 4800 3525 PO
  42   42 4800 3525 FO
1 j
0 35 117 -35 -117 -35 0 35 -29 0 -29 0 -29 0 -28 0 
-29 0 -29 0 -29 0 -29 0 -28 0 -29 0 -29 0 -29 0 
-28 0 -29 0 -29 0 -29 0 -29 0 -28 0 -29 0 -29 0 
-29 0 -29 0 -28 0 3992 4154 28 MP stroke
c8
0 -118 -88 0 0 118 88 0 3802 4095 5 MP
PP
0 0 0 -118 -88 0 0 118 88 0 3802 4095 6 MP stroke
c12
%%IncludeResource: font Helvetica
/Helvetica /ISOLatin1Encoding 168 FMSR

2644 3619 mt 
(after) s
c11
2996 3619 mt 
(\() s
c9
3054 3619 mt 
(10) s
c11
3260 3619 mt 
(,) s
c13
3304 3619 mt 
(Ts) s
c11
3494 3619 mt 
(\)[Tinside<Tmin]) s
%%IncludeResource: font Helvetica-Oblique
/Helvetica-Oblique /ISOLatin1Encoding 144 FMSR

3802 4205 mt 
(2) s
0 -35 -118 35 118 36 0 -36 49 0 49 0 49 0 49 0 
49 0 49 0 49 0 49 0 49 0 49 0 49 0 49 0 
49 0 49 0 49 0 49 0 50 0 49 0 49 0 49 0 
49 0 49 0 49 0 5781 4155 28 MP stroke
c8
0 -117 -88 0 0 117 88 0 5855 4096 5 MP
PP
0 0 0 -117 -88 0 0 117 88 0 5855 4096 6 MP stroke
c12
%%IncludeResource: font Helvetica
/Helvetica /ISOLatin1Encoding 168 FMSR

5269 3766 mt 
(after) s
c11
5621 3766 mt 
(\() s
c9
5680 3766 mt 
(10) s
c11
5885 3766 mt 
(,) s
c13
5929 3766 mt 
(Ts) s
c11
6120 3766 mt 
(\)[Tinside>Tmax]) s
%%IncludeResource: font Helvetica-Oblique
/Helvetica-Oblique /ISOLatin1Encoding 144 FMSR

5855 4206 mt 
(1) s
0 -35 -117 35 117 35 0 -35 29 0 29 0 28 0 29 0 
29 0 29 0 29 0 28 0 29 0 29 0 29 0 28 0 
29 0 29 0 29 0 29 0 28 0 29 0 29 0 29 0 
29 0 28 0 29 0 3213 4829 28 MP stroke
c8
0 -118 -88 0 0 118 88 0 3286 4770 5 MP
PP
0 0 0 -118 -88 0 0 118 88 0 3286 4770 6 MP stroke
c11
%%IncludeResource: font Helvetica
/Helvetica /ISOLatin1Encoding 168 FMSR

2937 5160 mt 
([Tinside>Tmin]) s
%%IncludeResource: font Helvetica-Oblique
/Helvetica-Oblique /ISOLatin1Encoding 144 FMSR

3286 4880 mt 
(1) s
0 35 118 -35 -118 -35 0 35 -49 0 -49 0 -49 0 -49 0 
-49 0 -49 0 -49 0 -49 0 -49 0 -49 0 -49 0 -49 0 
-49 0 -49 0 -49 0 -49 0 -49 0 -49 0 -49 0 -49 0 
-49 0 -49 0 -50 0 7027 4964 28 MP stroke
c8
0 -118 -88 0 0 118 88 0 6836 4905 5 MP
PP
0 0 0 -118 -88 0 0 118 88 0 6836 4905 6 MP stroke
c11
%%IncludeResource: font Helvetica
/Helvetica /ISOLatin1Encoding 168 FMSR

5900 5145 mt 
([Tinside<Tmax]) s
%%IncludeResource: font Helvetica-Oblique
/Helvetica-Oblique /ISOLatin1Encoding 144 FMSR

6836 5015 mt 
(1) s
-35 0 35 118 35 -118 -35 0 6 -35 17 -31 26 -26 34 -22 
41 -17 47 -14 50 -10 54 -5 56 -3 57 1 57 5 57 7 
54 11 53 14 49 16 45 20 41 22 35 24 30 28 24 29 
18 32 10 35 4 37 1823 5049 28 MP stroke
c8
0 -117 -88 0 0 117 88 0 1790 5120 5 MP
PP
0 0 0 -117 -88 0 0 117 88 0 1790 5120 6 MP stroke
c12
%%IncludeResource: font Helvetica
/Helvetica /ISOLatin1Encoding 168 FMSR

1866 5468 mt 
(after) s
c11
2218 5468 mt 
(\() s
c9
2277 5468 mt 
(10) s
c11
2482 5468 mt 
(,) s
c13
2526 5468 mt 
(Ts) s
c11
2717 5468 mt 
(\)) s
%%IncludeResource: font Helvetica-Oblique
/Helvetica-Oblique /ISOLatin1Encoding 144 FMSR

1790 5230 mt 
(2) s
-36 0 36 117 35 -117 -35 0 5 -34 16 -30 26 -24 33 -21 
39 -17 44 -12 49 -9 52 -5 53 -2 55 1 55 5 54 8 
52 10 50 13 47 17 43 18 38 22 34 23 29 26 22 29 
17 31 10 33 3 35 7235 5074 28 MP stroke
c8
0 -117 -88 0 0 117 88 0 7202 5145 5 MP
PP
0 0 0 -117 -88 0 0 117 88 0 7202 5145 6 MP stroke
c12
%%IncludeResource: font Helvetica
/Helvetica /ISOLatin1Encoding 168 FMSR

7044 5468 mt 
(after) s
c11
7396 5468 mt 
(\() s
c9
7455 5468 mt 
(10) s
c11
7660 5468 mt 
(,) s
c13
7704 5468 mt 
(Ts) s
c11
7895 5468 mt 
(\)) s
%%IncludeResource: font Helvetica-Oblique
/Helvetica-Oblique /ISOLatin1Encoding 144 FMSR

7202 5255 mt 
(2) s
6 w
gr

c11

end %%Color Dict

eplot
%%EndObject

epage
end

showpage

%%Trailer
%%BoundingBox:    -6     0   595   848
%%Pages: 001
%%EOF
