<?xml version="1.0" encoding="UTF-8" standalone="no"?>
<!-- Created with Inkscape (http://www.inkscape.org/) -->

<svg
   xmlns:dc="http://purl.org/dc/elements/1.1/"
   xmlns:cc="http://creativecommons.org/ns#"
   xmlns:rdf="http://www.w3.org/1999/02/22-rdf-syntax-ns#"
   xmlns:svg="http://www.w3.org/2000/svg"
   xmlns="http://www.w3.org/2000/svg"
   xmlns:xlink="http://www.w3.org/1999/xlink"
   xmlns:sodipodi="http://sodipodi.sourceforge.net/DTD/sodipodi-0.dtd"
   xmlns:inkscape="http://www.inkscape.org/namespaces/inkscape"
   id="svg2"
   version="1.1"
   inkscape:version="0.48.0 r9654"
   width="396.25"
   height="277.5"
   xml:space="preserve"
   sodipodi:docname="policy-rules.svg"><metadata
     id="metadata8"><rdf:RDF><cc:Work
         rdf:about=""><dc:format>image/svg+xml</dc:format><dc:type
           rdf:resource="http://purl.org/dc/dcmitype/StillImage" /><dc:title></dc:title></cc:Work></rdf:RDF></metadata><defs
     id="defs6"><clipPath
       clipPathUnits="userSpaceOnUse"
       id="clipPath18"><path
         d="m 0,0 841.89,0 0,595.276 L 0,595.276 0,0 z"
         id="path20" /></clipPath><clipPath
       clipPathUnits="userSpaceOnUse"
       id="clipPath36"><path
         d="m 164.67831,291.9722 -34.54998,0 c -2.20095,0 -3.98511,-1.78417 -3.98511,-3.98511 l 0,-20.37657 c 0,-2.20094 1.78416,-3.98511 3.98511,-3.98511 l 34.54998,0 c 2.20095,0 3.98511,1.78417 3.98511,3.98511 l 0,20.37657 c 0,2.20094 -1.78416,3.98511 -3.98511,3.98511 z"
         id="path38" /></clipPath><clipPath
       clipPathUnits="userSpaceOnUse"
       id="clipPath50"><path
         d="M 0,0 100,0 100,100 0,100 0,0 z"
         id="path52" /></clipPath><linearGradient
       x1="0"
       y1="0"
       x2="0"
       y2="100.00128"
       gradientUnits="userSpaceOnUse"
       id="linearGradient54"><stop
         style="stop-opacity:1;stop-color:#fefefe"
         offset="0"
         id="stop56" /><stop
         style="stop-opacity:1;stop-color:#d9d9ff"
         offset="50.00064"
         id="stop58" /><stop
         style="stop-opacity:1;stop-color:#d9d9ff"
         offset="50.00064"
         id="stop60" /><stop
         style="stop-opacity:1;stop-color:#ffffff"
         offset="75.00096"
         id="stop62" /><stop
         style="stop-opacity:1;stop-color:#ffffff"
         offset="100.00128"
         id="stop64" /></linearGradient><clipPath
       clipPathUnits="userSpaceOnUse"
       id="clipPath84"><path
         d="m 161.84389,294.80663 -34.54999,0 c -2.20094,0 -3.98511,-1.78417 -3.98511,-3.98511 l 0,-20.37659 c 0,-2.20094 1.78417,-3.98511 3.98511,-3.98511 l 34.54999,0 c 2.20094,0 3.98511,1.78417 3.98511,3.98511 l 0,20.37659 c 0,2.20094 -1.78417,3.98511 -3.98511,3.98511 z"
         id="path86" /></clipPath><clipPath
       clipPathUnits="userSpaceOnUse"
       id="clipPath98"><path
         d="M 0,0 100,0 100,100 0,100 0,0 z"
         id="path100" /></clipPath><linearGradient
       x1="0"
       y1="0"
       x2="0"
       y2="100.00128"
       gradientUnits="userSpaceOnUse"
       id="linearGradient102"><stop
         style="stop-opacity:1;stop-color:#fefefe"
         offset="0"
         id="stop104" /><stop
         style="stop-opacity:1;stop-color:#d9d9ff"
         offset="50.00064"
         id="stop106" /><stop
         style="stop-opacity:1;stop-color:#d9d9ff"
         offset="50.00064"
         id="stop108" /><stop
         style="stop-opacity:1;stop-color:#ffffff"
         offset="75.00096"
         id="stop110" /><stop
         style="stop-opacity:1;stop-color:#ffffff"
         offset="100.00128"
         id="stop112" /></linearGradient><clipPath
       clipPathUnits="userSpaceOnUse"
       id="clipPath132"><path
         d="m 159.00903,297.6415 -34.54998,0 c -2.20095,0 -3.98511,-1.78417 -3.98511,-3.98511 l 0,-20.37659 c 0,-2.20094 1.78416,-3.9851 3.98511,-3.9851 l 34.54998,0 c 2.20095,0 3.98511,1.78416 3.98511,3.9851 l 0,20.37659 c 0,2.20094 -1.78416,3.98511 -3.98511,3.98511 z"
         id="path134" /></clipPath><clipPath
       clipPathUnits="userSpaceOnUse"
       id="clipPath146"><path
         d="M 0,0 100,0 100,100 0,100 0,0 z"
         id="path148" /></clipPath><linearGradient
       x1="0"
       y1="0"
       x2="0"
       y2="100.00128"
       gradientUnits="userSpaceOnUse"
       id="linearGradient150"><stop
         style="stop-opacity:1;stop-color:#fefefe"
         offset="0"
         id="stop152" /><stop
         style="stop-opacity:1;stop-color:#d9d9ff"
         offset="50.00064"
         id="stop154" /><stop
         style="stop-opacity:1;stop-color:#d9d9ff"
         offset="50.00064"
         id="stop156" /><stop
         style="stop-opacity:1;stop-color:#ffffff"
         offset="75.00096"
         id="stop158" /><stop
         style="stop-opacity:1;stop-color:#ffffff"
         offset="100.00128"
         id="stop160" /></linearGradient><clipPath
       clipPathUnits="userSpaceOnUse"
       id="clipPath188"><path
         d="m 165.33794,257.55765 -47.2078,0 c -2.20094,0 -3.98511,-1.78417 -3.98511,-3.98511 l 0,-20.37659 c 0,-2.20094 1.78417,-3.9851 3.98511,-3.9851 l 47.2078,0 c 2.20094,0 3.9851,1.78416 3.9851,3.9851 l 0,20.37659 c 0,2.20094 -1.78416,3.98511 -3.9851,3.98511 z"
         id="path190" /></clipPath><clipPath
       clipPathUnits="userSpaceOnUse"
       id="clipPath202"><path
         d="M 0,0 100,0 100,100 0,100 0,0 z"
         id="path204" /></clipPath><linearGradient
       x1="0"
       y1="0"
       x2="0"
       y2="100.00128"
       gradientUnits="userSpaceOnUse"
       id="linearGradient206"><stop
         style="stop-opacity:1;stop-color:#fefefe"
         offset="0"
         id="stop208" /><stop
         style="stop-opacity:1;stop-color:#d9d9ff"
         offset="50.00064"
         id="stop210" /><stop
         style="stop-opacity:1;stop-color:#d9d9ff"
         offset="50.00064"
         id="stop212" /><stop
         style="stop-opacity:1;stop-color:#ffffff"
         offset="75.00096"
         id="stop214" /><stop
         style="stop-opacity:1;stop-color:#ffffff"
         offset="100.00128"
         id="stop216" /></linearGradient><clipPath
       clipPathUnits="userSpaceOnUse"
       id="clipPath256"><path
         d="m 293.2971,257.55765 -34.55,0 c -2.20094,0 -3.9851,-1.78417 -3.9851,-3.98511 l 0,-20.37659 c 0,-2.20094 1.78416,-3.9851 3.9851,-3.9851 l 34.55,0 c 2.20095,0 3.98511,1.78416 3.98511,3.9851 l 0,20.37659 c 0,2.20094 -1.78416,3.98511 -3.98511,3.98511 z"
         id="path258" /></clipPath><clipPath
       clipPathUnits="userSpaceOnUse"
       id="clipPath270"><path
         d="M 0,0 100,0 100,100 0,100 0,0 z"
         id="path272" /></clipPath><linearGradient
       x1="0"
       y1="0"
       x2="0"
       y2="100.00128"
       gradientUnits="userSpaceOnUse"
       id="linearGradient274"><stop
         style="stop-opacity:1;stop-color:#fefefe"
         offset="0"
         id="stop276" /><stop
         style="stop-opacity:1;stop-color:#d9d9ff"
         offset="50.00064"
         id="stop278" /><stop
         style="stop-opacity:1;stop-color:#d9d9ff"
         offset="50.00064"
         id="stop280" /><stop
         style="stop-opacity:1;stop-color:#ffffff"
         offset="75.00096"
         id="stop282" /><stop
         style="stop-opacity:1;stop-color:#ffffff"
         offset="100.00128"
         id="stop284" /></linearGradient><clipPath
       clipPathUnits="userSpaceOnUse"
       id="clipPath322"><path
         d="m 161.9279,220.30821 -40.38772,0 c -2.20095,0 -3.98511,-1.78416 -3.98511,-3.98511 l 0,-20.37657 c 0,-2.20094 1.78416,-3.9851 3.98511,-3.9851 l 40.38772,0 c 2.20095,0 3.98511,1.78416 3.98511,3.9851 l 0,20.37657 c 0,2.20095 -1.78416,3.98511 -3.98511,3.98511 z"
         id="path324" /></clipPath><clipPath
       clipPathUnits="userSpaceOnUse"
       id="clipPath336"><path
         d="M 0,0 100,0 100,100 0,100 0,0 z"
         id="path338" /></clipPath><linearGradient
       x1="0"
       y1="0"
       x2="0"
       y2="100.00128"
       gradientUnits="userSpaceOnUse"
       id="linearGradient340"><stop
         style="stop-opacity:1;stop-color:#fefefe"
         offset="0"
         id="stop342" /><stop
         style="stop-opacity:1;stop-color:#d9d9ff"
         offset="50.00064"
         id="stop344" /><stop
         style="stop-opacity:1;stop-color:#d9d9ff"
         offset="50.00064"
         id="stop346" /><stop
         style="stop-opacity:1;stop-color:#ffffff"
         offset="75.00096"
         id="stop348" /><stop
         style="stop-opacity:1;stop-color:#ffffff"
         offset="100.00128"
         id="stop350" /></linearGradient><clipPath
       clipPathUnits="userSpaceOnUse"
       id="clipPath390"><path
         d="m 169.99025,183.05879 -56.51242,0 c -2.20094,0 -3.98511,-1.78416 -3.98511,-3.98511 l 0,-20.37657 c 0,-2.20094 1.78417,-3.98511 3.98511,-3.98511 l 56.51242,0 c 2.20095,0 3.98511,1.78417 3.98511,3.98511 l 0,20.37657 c 0,2.20095 -1.78416,3.98511 -3.98511,3.98511 z"
         id="path392" /></clipPath><clipPath
       clipPathUnits="userSpaceOnUse"
       id="clipPath404"><path
         d="M 0,0 100,0 100,100 0,100 0,0 z"
         id="path406" /></clipPath><linearGradient
       x1="0"
       y1="0"
       x2="0"
       y2="100.00128"
       gradientUnits="userSpaceOnUse"
       id="linearGradient408"><stop
         style="stop-opacity:1;stop-color:#fefefe"
         offset="0"
         id="stop410" /><stop
         style="stop-opacity:1;stop-color:#d9d9ff"
         offset="50.00064"
         id="stop412" /><stop
         style="stop-opacity:1;stop-color:#d9d9ff"
         offset="50.00064"
         id="stop414" /><stop
         style="stop-opacity:1;stop-color:#ffffff"
         offset="75.00096"
         id="stop416" /><stop
         style="stop-opacity:1;stop-color:#ffffff"
         offset="100.00128"
         id="stop418" /></linearGradient><clipPath
       clipPathUnits="userSpaceOnUse"
       id="clipPath458"><path
         d="m 159.00903,125.96669 -34.54998,0 c -2.20095,0 -3.98511,-1.78416 -3.98511,-3.98511 l 0,-20.37658 c 0,-2.20095 1.78416,-3.98511 3.98511,-3.98511 l 34.54998,0 c 2.20095,0 3.98511,1.78416 3.98511,3.98511 l 0,20.37658 c 0,2.20095 -1.78416,3.98511 -3.98511,3.98511 z"
         id="path460" /></clipPath><clipPath
       clipPathUnits="userSpaceOnUse"
       id="clipPath472"><path
         d="M 0,0 100,0 100,100 0,100 0,0 z"
         id="path474" /></clipPath><linearGradient
       x1="0"
       y1="0"
       x2="0"
       y2="100.00128"
       gradientUnits="userSpaceOnUse"
       id="linearGradient476"><stop
         style="stop-opacity:1;stop-color:#fefefe"
         offset="0"
         id="stop478" /><stop
         style="stop-opacity:1;stop-color:#d9d9ff"
         offset="50.00064"
         id="stop480" /><stop
         style="stop-opacity:1;stop-color:#d9d9ff"
         offset="50.00064"
         id="stop482" /><stop
         style="stop-opacity:1;stop-color:#ffffff"
         offset="75.00096"
         id="stop484" /><stop
         style="stop-opacity:1;stop-color:#ffffff"
         offset="100.00128"
         id="stop486" /></linearGradient><clipPath
       clipPathUnits="userSpaceOnUse"
       id="clipPath526"><path
         d="m 244.65395,221.37318 -60.1839,0 c -2.20095,0 -3.98511,-1.78416 -3.98511,-3.9851 l 0,-22.5065 c 0,-2.20095 1.78416,-3.98511 3.98511,-3.98511 l 60.1839,0 c 2.20094,0 3.9851,1.78416 3.9851,3.98511 l 0,22.5065 c 0,2.20094 -1.78416,3.9851 -3.9851,3.9851 z"
         id="path528" /></clipPath><clipPath
       clipPathUnits="userSpaceOnUse"
       id="clipPath540"><path
         d="M 0,0 100,0 100,100 0,100 0,0 z"
         id="path542" /></clipPath><linearGradient
       x1="0"
       y1="0"
       x2="0"
       y2="100.00128"
       gradientUnits="userSpaceOnUse"
       id="linearGradient544"><stop
         style="stop-opacity:1;stop-color:#fefefe"
         offset="0"
         id="stop546" /><stop
         style="stop-opacity:1;stop-color:#d9d9ff"
         offset="50.00064"
         id="stop548" /><stop
         style="stop-opacity:1;stop-color:#d9d9ff"
         offset="50.00064"
         id="stop550" /><stop
         style="stop-opacity:1;stop-color:#ffffff"
         offset="75.00096"
         id="stop552" /><stop
         style="stop-opacity:1;stop-color:#ffffff"
         offset="100.00128"
         id="stop554" /></linearGradient><clipPath
       clipPathUnits="userSpaceOnUse"
       id="clipPath596"><path
         d="m 247.48413,183.41263 -54.95175,0 c -2.20094,0 -3.98511,-1.78417 -3.98511,-3.98511 l 0,-21.08424 c 0,-2.20095 1.78417,-3.98511 3.98511,-3.98511 l 54.95175,0 c 2.20094,0 3.98511,1.78416 3.98511,3.98511 l 0,21.08424 c 0,2.20094 -1.78417,3.98511 -3.98511,3.98511 z"
         id="path598" /></clipPath><clipPath
       clipPathUnits="userSpaceOnUse"
       id="clipPath610"><path
         d="M 0,0 100,0 100,100 0,100 0,0 z"
         id="path612" /></clipPath><linearGradient
       x1="0"
       y1="0"
       x2="0"
       y2="100.00128"
       gradientUnits="userSpaceOnUse"
       id="linearGradient614"><stop
         style="stop-opacity:1;stop-color:#fefefe"
         offset="0"
         id="stop616" /><stop
         style="stop-opacity:1;stop-color:#d9d9ff"
         offset="50.00064"
         id="stop618" /><stop
         style="stop-opacity:1;stop-color:#d9d9ff"
         offset="50.00064"
         id="stop620" /><stop
         style="stop-opacity:1;stop-color:#ffffff"
         offset="75.00096"
         id="stop622" /><stop
         style="stop-opacity:1;stop-color:#ffffff"
         offset="100.00128"
         id="stop624" /></linearGradient><clipPath
       clipPathUnits="userSpaceOnUse"
       id="clipPath684"><path
         d="m 230.76692,122.02235 -35.04236,0 c -2.20094,0 -3.9851,-1.78416 -3.9851,-3.9851 l 0,-12.48792 c 0,-2.20094 1.78416,-3.98511 3.9851,-3.98511 l 35.04236,0 c 2.20094,0 3.98511,1.78417 3.98511,3.98511 l 0,12.48792 c 0,2.20094 -1.78417,3.9851 -3.98511,3.9851 z"
         id="path686" /></clipPath><clipPath
       clipPathUnits="userSpaceOnUse"
       id="clipPath698"><path
         d="M 0,0 100,0 100,100 0,100 0,0 z"
         id="path700" /></clipPath><linearGradient
       x1="0"
       y1="0"
       x2="0"
       y2="100.00128"
       gradientUnits="userSpaceOnUse"
       id="linearGradient702"><stop
         style="stop-opacity:1;stop-color:#fefefe"
         offset="0"
         id="stop704" /><stop
         style="stop-opacity:1;stop-color:#d9d9ff"
         offset="50.00064"
         id="stop706" /><stop
         style="stop-opacity:1;stop-color:#d9d9ff"
         offset="50.00064"
         id="stop708" /><stop
         style="stop-opacity:1;stop-color:#ffffff"
         offset="75.00096"
         id="stop710" /><stop
         style="stop-opacity:1;stop-color:#ffffff"
         offset="100.00128"
         id="stop712" /></linearGradient><clipPath
       clipPathUnits="userSpaceOnUse"
       id="clipPath752"><path
         d="m 237.59805,146.34573 -48.70462,0 c -2.20094,0 -3.9851,-1.78416 -3.9851,-3.9851 l 0,-10.28539 c 0,-2.20094 1.78416,-3.98511 3.9851,-3.98511 l 48.70462,0 c 2.20095,0 3.98511,1.78417 3.98511,3.98511 l 0,10.28539 c 0,2.20094 -1.78416,3.9851 -3.98511,3.9851 z"
         id="path754" /></clipPath><clipPath
       clipPathUnits="userSpaceOnUse"
       id="clipPath766"><path
         d="M 0,0 100,0 100,100 0,100 0,0 z"
         id="path768" /></clipPath><linearGradient
       x1="0"
       y1="0"
       x2="0"
       y2="100.00128"
       gradientUnits="userSpaceOnUse"
       id="linearGradient770"><stop
         style="stop-opacity:1;stop-color:#fefefe"
         offset="0"
         id="stop772" /><stop
         style="stop-opacity:1;stop-color:#d9d9ff"
         offset="50.00064"
         id="stop774" /><stop
         style="stop-opacity:1;stop-color:#d9d9ff"
         offset="50.00064"
         id="stop776" /><stop
         style="stop-opacity:1;stop-color:#ffffff"
         offset="75.00096"
         id="stop778" /><stop
         style="stop-opacity:1;stop-color:#ffffff"
         offset="100.00128"
         id="stop780" /></linearGradient><clipPath
       clipPathUnits="userSpaceOnUse"
       id="clipPath820"><path
         d="m 233.70937,95.49644 -40.92725,0 c -2.20094,0 -3.98511,-1.78416 -3.98511,-3.9851 l 0,-10.55118 c 0,-2.20094 1.78417,-3.98511 3.98511,-3.98511 l 40.92725,0 c 2.20094,0 3.9851,1.78417 3.9851,3.98511 l 0,10.55118 c 0,2.20094 -1.78416,3.9851 -3.9851,3.9851 z"
         id="path822" /></clipPath><clipPath
       clipPathUnits="userSpaceOnUse"
       id="clipPath834"><path
         d="M 0,0 100,0 100,100 0,100 0,0 z"
         id="path836" /></clipPath><linearGradient
       x1="0"
       y1="0"
       x2="0"
       y2="100.00128"
       gradientUnits="userSpaceOnUse"
       id="linearGradient838"><stop
         style="stop-opacity:1;stop-color:#fefefe"
         offset="0"
         id="stop840" /><stop
         style="stop-opacity:1;stop-color:#d9d9ff"
         offset="50.00064"
         id="stop842" /><stop
         style="stop-opacity:1;stop-color:#d9d9ff"
         offset="50.00064"
         id="stop844" /><stop
         style="stop-opacity:1;stop-color:#ffffff"
         offset="75.00096"
         id="stop846" /><stop
         style="stop-opacity:1;stop-color:#ffffff"
         offset="100.00128"
         id="stop848" /></linearGradient><clipPath
       clipPathUnits="userSpaceOnUse"
       id="clipPath888"><path
         d="m 87.74352,134.25435 -53.04014,0 c -2.20094,0 -3.9851,-1.78417 -3.9851,-3.98511 l 0,-36.9519 c 0,-2.20094 1.78416,-3.98511 3.9851,-3.98511 l 53.04014,0 c 2.20094,0 3.9851,1.78417 3.9851,3.98511 l 0,36.9519 c 0,2.20094 -1.78416,3.98511 -3.9851,3.98511 z"
         id="path890" /></clipPath><clipPath
       clipPathUnits="userSpaceOnUse"
       id="clipPath902"><path
         d="M 0,0 100,0 100,100 0,100 0,0 z"
         id="path904" /></clipPath><linearGradient
       x1="0"
       y1="0"
       x2="0"
       y2="100.00128"
       gradientUnits="userSpaceOnUse"
       id="linearGradient906"><stop
         style="stop-opacity:1;stop-color:#fefefe"
         offset="0"
         id="stop908" /><stop
         style="stop-opacity:1;stop-color:#d9d9ff"
         offset="50.00064"
         id="stop910" /><stop
         style="stop-opacity:1;stop-color:#d9d9ff"
         offset="50.00064"
         id="stop912" /><stop
         style="stop-opacity:1;stop-color:#ffffff"
         offset="75.00096"
         id="stop914" /><stop
         style="stop-opacity:1;stop-color:#ffffff"
         offset="100.00128"
         id="stop916" /></linearGradient><clipPath
       clipPathUnits="userSpaceOnUse"
       id="clipPath978"><path
         d="m 342.3814,200.46553 -47.67815,0 c -2.20095,0 -3.98511,-1.78416 -3.98511,-3.98511 l 0,-10.55118 c 0,-2.20094 1.78416,-3.9851 3.98511,-3.9851 l 47.67815,0 c 2.20094,0 3.9851,1.78416 3.9851,3.9851 l 0,10.55118 c 0,2.20095 -1.78416,3.98511 -3.9851,3.98511 z"
         id="path980" /></clipPath><clipPath
       clipPathUnits="userSpaceOnUse"
       id="clipPath992"><path
         d="M 0,0 100,0 100,100 0,100 0,0 z"
         id="path994" /></clipPath><linearGradient
       x1="0"
       y1="0"
       x2="0"
       y2="100.00128"
       gradientUnits="userSpaceOnUse"
       id="linearGradient996"><stop
         style="stop-opacity:1;stop-color:#fefefe"
         offset="0"
         id="stop998" /><stop
         style="stop-opacity:1;stop-color:#d9d9ff"
         offset="50.00064"
         id="stop1000" /><stop
         style="stop-opacity:1;stop-color:#d9d9ff"
         offset="50.00064"
         id="stop1002" /><stop
         style="stop-opacity:1;stop-color:#ffffff"
         offset="75.00096"
         id="stop1004" /><stop
         style="stop-opacity:1;stop-color:#ffffff"
         offset="100.00128"
         id="stop1006" /></linearGradient><clipPath
       clipPathUnits="userSpaceOnUse"
       id="clipPath1034"><path
         d="m 340.45158,172.11873 -43.81851,0 c -2.20094,0 -3.98511,-1.78417 -3.98511,-3.98511 l 0,-10.55118 c 0,-2.20094 1.78417,-3.9851 3.98511,-3.9851 l 43.81851,0 c 2.20095,0 3.98511,1.78416 3.98511,3.9851 l 0,10.55118 c 0,2.20094 -1.78416,3.98511 -3.98511,3.98511 z"
         id="path1036" /></clipPath><clipPath
       clipPathUnits="userSpaceOnUse"
       id="clipPath1048"><path
         d="M 0,0 100,0 100,100 0,100 0,0 z"
         id="path1050" /></clipPath><linearGradient
       x1="0"
       y1="0"
       x2="0"
       y2="100.00128"
       gradientUnits="userSpaceOnUse"
       id="linearGradient1052"><stop
         style="stop-opacity:1;stop-color:#fefefe"
         offset="0"
         id="stop1054" /><stop
         style="stop-opacity:1;stop-color:#d9d9ff"
         offset="50.00064"
         id="stop1056" /><stop
         style="stop-opacity:1;stop-color:#d9d9ff"
         offset="50.00064"
         id="stop1058" /><stop
         style="stop-opacity:1;stop-color:#ffffff"
         offset="75.00096"
         id="stop1060" /><stop
         style="stop-opacity:1;stop-color:#ffffff"
         offset="100.00128"
         id="stop1062" /></linearGradient><clipPath
       clipPathUnits="userSpaceOnUse"
       id="clipPath1090"><path
         d="m 337.65163,143.7719 -38.2186,0 c -2.20094,0 -3.98511,-1.78417 -3.98511,-3.98511 l 0,-10.28539 c 0,-2.20094 1.78417,-3.9851 3.98511,-3.9851 l 38.2186,0 c 2.20094,0 3.9851,1.78416 3.9851,3.9851 l 0,10.28539 c 0,2.20094 -1.78416,3.98511 -3.9851,3.98511 z"
         id="path1092" /></clipPath><clipPath
       clipPathUnits="userSpaceOnUse"
       id="clipPath1104"><path
         d="M 0,0 100,0 100,100 0,100 0,0 z"
         id="path1106" /></clipPath><linearGradient
       x1="0"
       y1="0"
       x2="0"
       y2="100.00128"
       gradientUnits="userSpaceOnUse"
       id="linearGradient1108"><stop
         style="stop-opacity:1;stop-color:#fefefe"
         offset="0"
         id="stop1110" /><stop
         style="stop-opacity:1;stop-color:#d9d9ff"
         offset="50.00064"
         id="stop1112" /><stop
         style="stop-opacity:1;stop-color:#d9d9ff"
         offset="50.00064"
         id="stop1114" /><stop
         style="stop-opacity:1;stop-color:#ffffff"
         offset="75.00096"
         id="stop1116" /><stop
         style="stop-opacity:1;stop-color:#ffffff"
         offset="100.00128"
         id="stop1118" /></linearGradient><clipPath
       clipPathUnits="userSpaceOnUse"
       id="clipPath1146"><path
         d="m 330.33908,115.42508 -23.59351,0 c -2.20094,0 -3.9851,-1.78418 -3.9851,-3.98511 l 0,-10.55117 c 0,-2.20095 1.78416,-3.98511 3.9851,-3.98511 l 23.59351,0 c 2.20094,0 3.98511,1.78416 3.98511,3.98511 l 0,10.55117 c 0,2.20093 -1.78417,3.98511 -3.98511,3.98511 z"
         id="path1148" /></clipPath><clipPath
       clipPathUnits="userSpaceOnUse"
       id="clipPath1160"><path
         d="M 0,0 100,0 100,100 0,100 0,0 z"
         id="path1162" /></clipPath><linearGradient
       x1="0"
       y1="0"
       x2="0"
       y2="100.00128"
       gradientUnits="userSpaceOnUse"
       id="linearGradient1164"><stop
         style="stop-opacity:1;stop-color:#fefefe"
         offset="0"
         id="stop1166" /><stop
         style="stop-opacity:1;stop-color:#d9d9ff"
         offset="50.00064"
         id="stop1168" /><stop
         style="stop-opacity:1;stop-color:#d9d9ff"
         offset="50.00064"
         id="stop1170" /><stop
         style="stop-opacity:1;stop-color:#ffffff"
         offset="75.00096"
         id="stop1172" /><stop
         style="stop-opacity:1;stop-color:#ffffff"
         offset="100.00128"
         id="stop1174" /></linearGradient><linearGradient
       inkscape:collect="always"
       xlink:href="#linearGradient54"
       id="linearGradient8105"
       gradientUnits="userSpaceOnUse"
       x1="0"
       y1="0"
       x2="0"
       y2="100.00128" /><linearGradient
       inkscape:collect="always"
       xlink:href="#linearGradient102"
       id="linearGradient8107"
       gradientUnits="userSpaceOnUse"
       x1="0"
       y1="0"
       x2="0"
       y2="100.00128" /><linearGradient
       inkscape:collect="always"
       xlink:href="#linearGradient150"
       id="linearGradient8109"
       gradientUnits="userSpaceOnUse"
       x1="0"
       y1="0"
       x2="0"
       y2="100.00128" /><linearGradient
       inkscape:collect="always"
       xlink:href="#linearGradient206"
       id="linearGradient8111"
       gradientUnits="userSpaceOnUse"
       x1="0"
       y1="0"
       x2="0"
       y2="100.00128" /><linearGradient
       inkscape:collect="always"
       xlink:href="#linearGradient274"
       id="linearGradient8113"
       gradientUnits="userSpaceOnUse"
       x1="0"
       y1="0"
       x2="0"
       y2="100.00128" /><linearGradient
       inkscape:collect="always"
       xlink:href="#linearGradient340"
       id="linearGradient8115"
       gradientUnits="userSpaceOnUse"
       x1="0"
       y1="0"
       x2="0"
       y2="100.00128" /><linearGradient
       inkscape:collect="always"
       xlink:href="#linearGradient408"
       id="linearGradient8117"
       gradientUnits="userSpaceOnUse"
       x1="0"
       y1="0"
       x2="0"
       y2="100.00128" /><linearGradient
       inkscape:collect="always"
       xlink:href="#linearGradient476"
       id="linearGradient8119"
       gradientUnits="userSpaceOnUse"
       x1="0"
       y1="0"
       x2="0"
       y2="100.00128" /><linearGradient
       inkscape:collect="always"
       xlink:href="#linearGradient544"
       id="linearGradient8121"
       gradientUnits="userSpaceOnUse"
       x1="0"
       y1="0"
       x2="0"
       y2="100.00128" /><linearGradient
       inkscape:collect="always"
       xlink:href="#linearGradient614"
       id="linearGradient8123"
       gradientUnits="userSpaceOnUse"
       x1="0"
       y1="0"
       x2="0"
       y2="100.00128" /><linearGradient
       inkscape:collect="always"
       xlink:href="#linearGradient702"
       id="linearGradient8125"
       gradientUnits="userSpaceOnUse"
       x1="0"
       y1="0"
       x2="0"
       y2="100.00128" /><linearGradient
       inkscape:collect="always"
       xlink:href="#linearGradient770"
       id="linearGradient8127"
       gradientUnits="userSpaceOnUse"
       x1="0"
       y1="0"
       x2="0"
       y2="100.00128" /><linearGradient
       inkscape:collect="always"
       xlink:href="#linearGradient838"
       id="linearGradient8129"
       gradientUnits="userSpaceOnUse"
       x1="0"
       y1="0"
       x2="0"
       y2="100.00128" /><linearGradient
       inkscape:collect="always"
       xlink:href="#linearGradient906"
       id="linearGradient8131"
       gradientUnits="userSpaceOnUse"
       x1="0"
       y1="0"
       x2="0"
       y2="100.00128" /><linearGradient
       inkscape:collect="always"
       xlink:href="#linearGradient996"
       id="linearGradient8133"
       gradientUnits="userSpaceOnUse"
       x1="0"
       y1="0"
       x2="0"
       y2="100.00128" /><linearGradient
       inkscape:collect="always"
       xlink:href="#linearGradient1052"
       id="linearGradient8135"
       gradientUnits="userSpaceOnUse"
       x1="0"
       y1="0"
       x2="0"
       y2="100.00128" /><linearGradient
       inkscape:collect="always"
       xlink:href="#linearGradient1108"
       id="linearGradient8137"
       gradientUnits="userSpaceOnUse"
       x1="0"
       y1="0"
       x2="0"
       y2="100.00128" /><linearGradient
       inkscape:collect="always"
       xlink:href="#linearGradient1164"
       id="linearGradient8139"
       gradientUnits="userSpaceOnUse"
       x1="0"
       y1="0"
       x2="0"
       y2="100.00128" /><linearGradient
       inkscape:collect="always"
       xlink:href="#linearGradient54"
       id="linearGradient8583"
       gradientUnits="userSpaceOnUse"
       x1="0"
       y1="0"
       x2="0"
       y2="100.00128" /><linearGradient
       inkscape:collect="always"
       xlink:href="#linearGradient102"
       id="linearGradient8585"
       gradientUnits="userSpaceOnUse"
       x1="0"
       y1="0"
       x2="0"
       y2="100.00128" /><linearGradient
       inkscape:collect="always"
       xlink:href="#linearGradient150"
       id="linearGradient8587"
       gradientUnits="userSpaceOnUse"
       x1="0"
       y1="0"
       x2="0"
       y2="100.00128" /><linearGradient
       inkscape:collect="always"
       xlink:href="#linearGradient206"
       id="linearGradient8589"
       gradientUnits="userSpaceOnUse"
       x1="0"
       y1="0"
       x2="0"
       y2="100.00128" /><linearGradient
       inkscape:collect="always"
       xlink:href="#linearGradient274"
       id="linearGradient8591"
       gradientUnits="userSpaceOnUse"
       x1="0"
       y1="0"
       x2="0"
       y2="100.00128" /><linearGradient
       inkscape:collect="always"
       xlink:href="#linearGradient340"
       id="linearGradient8593"
       gradientUnits="userSpaceOnUse"
       x1="0"
       y1="0"
       x2="0"
       y2="100.00128" /><linearGradient
       inkscape:collect="always"
       xlink:href="#linearGradient408"
       id="linearGradient8595"
       gradientUnits="userSpaceOnUse"
       x1="0"
       y1="0"
       x2="0"
       y2="100.00128" /><linearGradient
       inkscape:collect="always"
       xlink:href="#linearGradient476"
       id="linearGradient8597"
       gradientUnits="userSpaceOnUse"
       x1="0"
       y1="0"
       x2="0"
       y2="100.00128" /><linearGradient
       inkscape:collect="always"
       xlink:href="#linearGradient544"
       id="linearGradient8599"
       gradientUnits="userSpaceOnUse"
       x1="0"
       y1="0"
       x2="0"
       y2="100.00128" /><linearGradient
       inkscape:collect="always"
       xlink:href="#linearGradient614"
       id="linearGradient8601"
       gradientUnits="userSpaceOnUse"
       x1="0"
       y1="0"
       x2="0"
       y2="100.00128" /><linearGradient
       inkscape:collect="always"
       xlink:href="#linearGradient702"
       id="linearGradient8603"
       gradientUnits="userSpaceOnUse"
       x1="0"
       y1="0"
       x2="0"
       y2="100.00128" /><linearGradient
       inkscape:collect="always"
       xlink:href="#linearGradient770"
       id="linearGradient8605"
       gradientUnits="userSpaceOnUse"
       x1="0"
       y1="0"
       x2="0"
       y2="100.00128" /><linearGradient
       inkscape:collect="always"
       xlink:href="#linearGradient838"
       id="linearGradient8607"
       gradientUnits="userSpaceOnUse"
       x1="0"
       y1="0"
       x2="0"
       y2="100.00128" /><linearGradient
       inkscape:collect="always"
       xlink:href="#linearGradient906"
       id="linearGradient8609"
       gradientUnits="userSpaceOnUse"
       x1="0"
       y1="0"
       x2="0"
       y2="100.00128" /><linearGradient
       inkscape:collect="always"
       xlink:href="#linearGradient996"
       id="linearGradient8611"
       gradientUnits="userSpaceOnUse"
       x1="0"
       y1="0"
       x2="0"
       y2="100.00128" /><linearGradient
       inkscape:collect="always"
       xlink:href="#linearGradient1052"
       id="linearGradient8613"
       gradientUnits="userSpaceOnUse"
       x1="0"
       y1="0"
       x2="0"
       y2="100.00128" /><linearGradient
       inkscape:collect="always"
       xlink:href="#linearGradient1108"
       id="linearGradient8615"
       gradientUnits="userSpaceOnUse"
       x1="0"
       y1="0"
       x2="0"
       y2="100.00128" /><linearGradient
       inkscape:collect="always"
       xlink:href="#linearGradient1164"
       id="linearGradient8617"
       gradientUnits="userSpaceOnUse"
       x1="0"
       y1="0"
       x2="0"
       y2="100.00128" /><linearGradient
       inkscape:collect="always"
       xlink:href="#linearGradient54"
       id="linearGradient9060"
       gradientUnits="userSpaceOnUse"
       x1="0"
       y1="0"
       x2="0"
       y2="100.00128" /><linearGradient
       inkscape:collect="always"
       xlink:href="#linearGradient102"
       id="linearGradient9062"
       gradientUnits="userSpaceOnUse"
       x1="0"
       y1="0"
       x2="0"
       y2="100.00128" /><linearGradient
       inkscape:collect="always"
       xlink:href="#linearGradient150"
       id="linearGradient9064"
       gradientUnits="userSpaceOnUse"
       x1="0"
       y1="0"
       x2="0"
       y2="100.00128" /><linearGradient
       inkscape:collect="always"
       xlink:href="#linearGradient206"
       id="linearGradient9066"
       gradientUnits="userSpaceOnUse"
       x1="0"
       y1="0"
       x2="0"
       y2="100.00128" /><linearGradient
       inkscape:collect="always"
       xlink:href="#linearGradient274"
       id="linearGradient9068"
       gradientUnits="userSpaceOnUse"
       x1="0"
       y1="0"
       x2="0"
       y2="100.00128" /><linearGradient
       inkscape:collect="always"
       xlink:href="#linearGradient340"
       id="linearGradient9070"
       gradientUnits="userSpaceOnUse"
       x1="0"
       y1="0"
       x2="0"
       y2="100.00128" /><linearGradient
       inkscape:collect="always"
       xlink:href="#linearGradient408"
       id="linearGradient9072"
       gradientUnits="userSpaceOnUse"
       x1="0"
       y1="0"
       x2="0"
       y2="100.00128" /><linearGradient
       inkscape:collect="always"
       xlink:href="#linearGradient476"
       id="linearGradient9074"
       gradientUnits="userSpaceOnUse"
       x1="0"
       y1="0"
       x2="0"
       y2="100.00128" /><linearGradient
       inkscape:collect="always"
       xlink:href="#linearGradient544"
       id="linearGradient9076"
       gradientUnits="userSpaceOnUse"
       x1="0"
       y1="0"
       x2="0"
       y2="100.00128" /><linearGradient
       inkscape:collect="always"
       xlink:href="#linearGradient614"
       id="linearGradient9078"
       gradientUnits="userSpaceOnUse"
       x1="0"
       y1="0"
       x2="0"
       y2="100.00128" /><linearGradient
       inkscape:collect="always"
       xlink:href="#linearGradient702"
       id="linearGradient9080"
       gradientUnits="userSpaceOnUse"
       x1="0"
       y1="0"
       x2="0"
       y2="100.00128" /><linearGradient
       inkscape:collect="always"
       xlink:href="#linearGradient770"
       id="linearGradient9082"
       gradientUnits="userSpaceOnUse"
       x1="0"
       y1="0"
       x2="0"
       y2="100.00128" /><linearGradient
       inkscape:collect="always"
       xlink:href="#linearGradient838"
       id="linearGradient9084"
       gradientUnits="userSpaceOnUse"
       x1="0"
       y1="0"
       x2="0"
       y2="100.00128" /><linearGradient
       inkscape:collect="always"
       xlink:href="#linearGradient906"
       id="linearGradient9086"
       gradientUnits="userSpaceOnUse"
       x1="0"
       y1="0"
       x2="0"
       y2="100.00128" /><linearGradient
       inkscape:collect="always"
       xlink:href="#linearGradient996"
       id="linearGradient9088"
       gradientUnits="userSpaceOnUse"
       x1="0"
       y1="0"
       x2="0"
       y2="100.00128" /><linearGradient
       inkscape:collect="always"
       xlink:href="#linearGradient1052"
       id="linearGradient9090"
       gradientUnits="userSpaceOnUse"
       x1="0"
       y1="0"
       x2="0"
       y2="100.00128" /><linearGradient
       inkscape:collect="always"
       xlink:href="#linearGradient1108"
       id="linearGradient9092"
       gradientUnits="userSpaceOnUse"
       x1="0"
       y1="0"
       x2="0"
       y2="100.00128" /><linearGradient
       inkscape:collect="always"
       xlink:href="#linearGradient1164"
       id="linearGradient9094"
       gradientUnits="userSpaceOnUse"
       x1="0"
       y1="0"
       x2="0"
       y2="100.00128" /><linearGradient
       inkscape:collect="always"
       xlink:href="#linearGradient54"
       id="linearGradient9536"
       gradientUnits="userSpaceOnUse"
       x1="0"
       y1="0"
       x2="0"
       y2="100.00128" /><linearGradient
       inkscape:collect="always"
       xlink:href="#linearGradient102"
       id="linearGradient9538"
       gradientUnits="userSpaceOnUse"
       x1="0"
       y1="0"
       x2="0"
       y2="100.00128" /><linearGradient
       inkscape:collect="always"
       xlink:href="#linearGradient150"
       id="linearGradient9540"
       gradientUnits="userSpaceOnUse"
       x1="0"
       y1="0"
       x2="0"
       y2="100.00128" /><linearGradient
       inkscape:collect="always"
       xlink:href="#linearGradient206"
       id="linearGradient9542"
       gradientUnits="userSpaceOnUse"
       x1="0"
       y1="0"
       x2="0"
       y2="100.00128" /><linearGradient
       inkscape:collect="always"
       xlink:href="#linearGradient274"
       id="linearGradient9544"
       gradientUnits="userSpaceOnUse"
       x1="0"
       y1="0"
       x2="0"
       y2="100.00128" /><linearGradient
       inkscape:collect="always"
       xlink:href="#linearGradient340"
       id="linearGradient9546"
       gradientUnits="userSpaceOnUse"
       x1="0"
       y1="0"
       x2="0"
       y2="100.00128" /><linearGradient
       inkscape:collect="always"
       xlink:href="#linearGradient408"
       id="linearGradient9548"
       gradientUnits="userSpaceOnUse"
       x1="0"
       y1="0"
       x2="0"
       y2="100.00128" /><linearGradient
       inkscape:collect="always"
       xlink:href="#linearGradient476"
       id="linearGradient9550"
       gradientUnits="userSpaceOnUse"
       x1="0"
       y1="0"
       x2="0"
       y2="100.00128" /><linearGradient
       inkscape:collect="always"
       xlink:href="#linearGradient544"
       id="linearGradient9552"
       gradientUnits="userSpaceOnUse"
       x1="0"
       y1="0"
       x2="0"
       y2="100.00128" /><linearGradient
       inkscape:collect="always"
       xlink:href="#linearGradient614"
       id="linearGradient9554"
       gradientUnits="userSpaceOnUse"
       x1="0"
       y1="0"
       x2="0"
       y2="100.00128" /><linearGradient
       inkscape:collect="always"
       xlink:href="#linearGradient702"
       id="linearGradient9556"
       gradientUnits="userSpaceOnUse"
       x1="0"
       y1="0"
       x2="0"
       y2="100.00128" /><linearGradient
       inkscape:collect="always"
       xlink:href="#linearGradient770"
       id="linearGradient9558"
       gradientUnits="userSpaceOnUse"
       x1="0"
       y1="0"
       x2="0"
       y2="100.00128" /><linearGradient
       inkscape:collect="always"
       xlink:href="#linearGradient838"
       id="linearGradient9560"
       gradientUnits="userSpaceOnUse"
       x1="0"
       y1="0"
       x2="0"
       y2="100.00128" /><linearGradient
       inkscape:collect="always"
       xlink:href="#linearGradient906"
       id="linearGradient9562"
       gradientUnits="userSpaceOnUse"
       x1="0"
       y1="0"
       x2="0"
       y2="100.00128" /><linearGradient
       inkscape:collect="always"
       xlink:href="#linearGradient996"
       id="linearGradient9564"
       gradientUnits="userSpaceOnUse"
       x1="0"
       y1="0"
       x2="0"
       y2="100.00128" /><linearGradient
       inkscape:collect="always"
       xlink:href="#linearGradient1052"
       id="linearGradient9566"
       gradientUnits="userSpaceOnUse"
       x1="0"
       y1="0"
       x2="0"
       y2="100.00128" /><linearGradient
       inkscape:collect="always"
       xlink:href="#linearGradient1108"
       id="linearGradient9568"
       gradientUnits="userSpaceOnUse"
       x1="0"
       y1="0"
       x2="0"
       y2="100.00128" /><linearGradient
       inkscape:collect="always"
       xlink:href="#linearGradient1164"
       id="linearGradient9570"
       gradientUnits="userSpaceOnUse"
       x1="0"
       y1="0"
       x2="0"
       y2="100.00128" /></defs><sodipodi:namedview
     pagecolor="#ffffff"
     bordercolor="#666666"
     borderopacity="1"
     objecttolerance="10"
     gridtolerance="10"
     guidetolerance="10"
     inkscape:pageopacity="0"
     inkscape:pageshadow="2"
     inkscape:window-width="1920"
     inkscape:window-height="1126"
     id="namedview4"
     showgrid="false"
     inkscape:zoom="2.3135135"
     inkscape:cx="198.125"
     inkscape:cy="138.75"
     inkscape:window-x="1440"
     inkscape:window-y="25"
     inkscape:window-maximized="1"
     inkscape:current-layer="g12" /><g
     id="g10"
     inkscape:groupmode="layer"
     inkscape:label="policy-rules"
     transform="matrix(1.25,0,0,-1.25,0,277.5)"><g
       id="g12"
       transform="translate(-30,-334)"><g
         id="g28"
         transform="translate(-0.268,257.301)"><g
           id="g30"><g
             id="g32"><g
               clip-path="url(#clipPath36)"
               id="g34"><g
                 transform="matrix(0.8505,0,0,0.567,147.40332,277.7988)"
                 id="g40"><g
                   id="g42"><g
                     transform="translate(-50,-50)"
                     id="g44"><g
                       id="g46"><g
                         clip-path="url(#clipPath50)"
                         id="g48"><path
                           inkscape:connector-curvature="0"
                           id="path66"
                           style="fill:url(#linearGradient9536);stroke:none"
                           d="M 0,0 100,0 100,100 0,100 0,0 z" /></g></g></g></g></g></g></g><path
             inkscape:connector-curvature="0"
             id="path68"
             style="fill:none;stroke:#808080;stroke-width:0.3985;stroke-linecap:butt;stroke-linejoin:miter;stroke-miterlimit:10;stroke-opacity:1;stroke-dasharray:none"
             d="m 164.67831,291.9722 -34.54998,0 c -2.20095,0 -3.98511,-1.78417 -3.98511,-3.98511 l 0,-20.37657 c 0,-2.20094 1.78416,-3.98511 3.98511,-3.98511 l 34.54998,0 c 2.20095,0 3.98511,1.78417 3.98511,3.98511 l 0,20.37657 c 0,2.20094 -1.78416,3.98511 -3.98511,3.98511 z" /></g><g
           transform="translate(147.402,277.795)"
           id="g70"><g
             id="g72" /><g
             transform="translate(-147.402,-277.795)"
             id="g74" /></g></g><g
         id="g76"
         transform="translate(-0.268,257.301)"><g
           id="g78"><g
             id="g80"><g
               clip-path="url(#clipPath84)"
               id="g82"><g
                 transform="matrix(0.8505,0,0,0.567,144.56888,280.63321)"
                 id="g88"><g
                   id="g90"><g
                     transform="translate(-50,-50)"
                     id="g92"><g
                       id="g94"><g
                         clip-path="url(#clipPath98)"
                         id="g96"><path
                           inkscape:connector-curvature="0"
                           id="path114"
                           style="fill:url(#linearGradient9538);stroke:none"
                           d="M 0,0 100,0 100,100 0,100 0,0 z" /></g></g></g></g></g></g></g><path
             inkscape:connector-curvature="0"
             id="path116"
             style="fill:none;stroke:#808080;stroke-width:0.3985;stroke-linecap:butt;stroke-linejoin:miter;stroke-miterlimit:10;stroke-opacity:1;stroke-dasharray:none"
             d="m 161.84389,294.80663 -34.54999,0 c -2.20094,0 -3.98511,-1.78417 -3.98511,-3.98511 l 0,-20.37659 c 0,-2.20094 1.78417,-3.98511 3.98511,-3.98511 l 34.54999,0 c 2.20094,0 3.98511,1.78417 3.98511,3.98511 l 0,20.37659 c 0,2.20094 -1.78417,3.98511 -3.98511,3.98511 z" /></g><g
           transform="translate(144.567,280.63)"
           id="g118"><g
             id="g120" /><g
             transform="translate(-144.567,-280.63)"
             id="g122" /></g></g><g
         id="g124"
         transform="translate(-0.268,257.301)"><g
           id="g126"><g
             id="g128"><g
               clip-path="url(#clipPath132)"
               id="g130"><g
                 transform="matrix(0.8505,0,0,0.567,141.73404,283.46808)"
                 id="g136"><g
                   id="g138"><g
                     transform="translate(-50,-50)"
                     id="g140"><g
                       id="g142"><g
                         clip-path="url(#clipPath146)"
                         id="g144"><path
                           inkscape:connector-curvature="0"
                           id="path162"
                           style="fill:url(#linearGradient9540);stroke:none"
                           d="M 0,0 100,0 100,100 0,100 0,0 z" /></g></g></g></g></g></g></g><path
             inkscape:connector-curvature="0"
             id="path164"
             style="fill:none;stroke:#808080;stroke-width:0.3985;stroke-linecap:butt;stroke-linejoin:miter;stroke-miterlimit:10;stroke-opacity:1;stroke-dasharray:none"
             d="m 159.00903,297.6415 -34.54998,0 c -2.20095,0 -3.98511,-1.78417 -3.98511,-3.98511 l 0,-20.37659 c 0,-2.20094 1.78416,-3.9851 3.98511,-3.9851 l 34.54998,0 c 2.20095,0 3.98511,1.78416 3.98511,3.9851 l 0,20.37659 c 0,2.20094 -1.78416,3.98511 -3.98511,3.98511 z" /></g><g
           transform="translate(131.62,279.873)"
           id="g166"><g
             id="g168"><g
               transform="translate(-131.352,-537.174)"
               id="g170"><text
                 id="text172"
                 transform="matrix(1,0,0,-1,131.352,537.174)"><tspan
                   id="tspan174"
                   sodipodi:role="line"
                   y="0"
                   x="0 7.0002646 12.588721 15.134054"
                   style="font-size:9.96259975px;font-variant:normal;font-weight:normal;writing-mode:lr-tb;fill:#000000;fill-opacity:1;fill-rule:nonzero;stroke:none;font-family:Arial;-inkscape-font-specification:Arial">Rule</tspan></text>
<g
                 transform="translate(131.352,537.174)"
                 id="g176" /></g></g><g
             transform="translate(-131.62,-279.873)"
             id="g178" /></g></g><g
         id="g180"
         transform="translate(-0.268,257.301)"><g
           id="g182"><g
             id="g184"><g
               clip-path="url(#clipPath188)"
               id="g186"><g
                 transform="matrix(1.10368,0,0,0.567,141.73402,243.38423)"
                 id="g192"><g
                   id="g194"><g
                     transform="translate(-50,-50)"
                     id="g196"><g
                       id="g198"><g
                         clip-path="url(#clipPath202)"
                         id="g200"><path
                           inkscape:connector-curvature="0"
                           id="path218"
                           style="fill:url(#linearGradient9542);stroke:none"
                           d="M 0,0 100,0 100,100 0,100 0,0 z" /></g></g></g></g></g></g></g><path
             inkscape:connector-curvature="0"
             id="path220"
             style="fill:none;stroke:#808080;stroke-width:0.3985;stroke-linecap:butt;stroke-linejoin:miter;stroke-miterlimit:10;stroke-opacity:1;stroke-dasharray:none"
             d="m 165.33794,257.55765 -47.2078,0 c -2.20094,0 -3.98511,-1.78417 -3.98511,-3.98511 l 0,-20.37659 c 0,-2.20094 1.78417,-3.9851 3.98511,-3.9851 l 47.2078,0 c 2.20094,0 3.9851,1.78416 3.9851,3.9851 l 0,20.37659 c 0,2.20094 -1.78416,3.98511 -3.9851,3.98511 z" /></g><g
           transform="translate(119.813,239.79)"
           id="g222"><g
             id="g224"><g
               transform="translate(-119.545,-497.091)"
               id="g226"><text
                 id="text228"
                 transform="matrix(1,0,0,-1,119.545,497.091)"><tspan
                   id="tspan230"
                   sodipodi:role="line"
                   y="0"
                   x="0 7.0002646 12.478368 18.066824 23.655281 26.200613 30.226126 32.771458 38.249561"
                   style="font-size:9.96259975px;font-variant:normal;font-weight:normal;writing-mode:lr-tb;fill:#000000;fill-opacity:1;fill-rule:nonzero;stroke:none;font-family:Arial;-inkscape-font-specification:Arial">Condition</tspan></text>
<g
                 transform="translate(119.545,497.091)"
                 id="g232" /></g></g><g
             transform="translate(-119.813,-239.79)"
             id="g234" /></g></g><g
         id="g236"
         transform="translate(-0.268,257.301)"><g
           id="g238"><path
             inkscape:connector-curvature="0"
             id="path240"
             style="fill:none;stroke:#000000;stroke-width:1.19553006;stroke-linecap:butt;stroke-linejoin:miter;stroke-miterlimit:10;stroke-opacity:1;stroke-dasharray:none"
             d="m 141.73404,258.71332 0,10.38212" /><g
             transform="matrix(0,-1,1,0,141.73404,258.71332)"
             id="g242"><g
               id="g244"><path
                 inkscape:connector-curvature="0"
                 id="path246"
                 style="fill:none;stroke:#000000;stroke-width:0.95639998;stroke-linecap:round;stroke-linejoin:round;stroke-miterlimit:10;stroke-opacity:1;stroke-dasharray:none"
                 d="M -1.91284,2.55046 C -1.75343,1.59402 0,0.15938 0.4782,0 0,-0.15938 -1.75343,-1.59402 -1.91284,-2.55046" /></g></g></g></g><g
         id="g248"
         transform="translate(-0.268,257.301)"><g
           id="g250"><g
             id="g252"><g
               clip-path="url(#clipPath256)"
               id="g254"><g
                 transform="matrix(0.8505,0,0,0.567,276.02208,243.38423)"
                 id="g260"><g
                   id="g262"><g
                     transform="translate(-50,-50)"
                     id="g264"><g
                       id="g266"><g
                         clip-path="url(#clipPath270)"
                         id="g268"><path
                           inkscape:connector-curvature="0"
                           id="path286"
                           style="fill:url(#linearGradient9544);stroke:none"
                           d="M 0,0 100,0 100,100 0,100 0,0 z" /></g></g></g></g></g></g></g><path
             inkscape:connector-curvature="0"
             id="path288"
             style="fill:none;stroke:#808080;stroke-width:0.3985;stroke-linecap:butt;stroke-linejoin:miter;stroke-miterlimit:10;stroke-opacity:1;stroke-dasharray:none"
             d="m 293.2971,257.55765 -34.55,0 c -2.20094,0 -3.9851,-1.78417 -3.9851,-3.98511 l 0,-20.37659 c 0,-2.20094 1.78416,-3.9851 3.9851,-3.9851 l 34.55,0 c 2.20095,0 3.98511,1.78416 3.98511,3.9851 l 0,20.37659 c 0,2.20094 -1.78416,3.98511 -3.98511,3.98511 z" /></g><g
           transform="translate(261.265,239.79)"
           id="g290"><g
             id="g292"><g
               transform="translate(-260.997,-497.091)"
               id="g294"><text
                 id="text296"
                 transform="matrix(1,0,0,-1,260.997,497.091)"><tspan
                   id="tspan298"
                   sodipodi:role="line"
                   y="0"
                   x="0 7.0048594 11.864855 15.890367 18.435699 23.913803"
                   style="font-size:9.96259975px;font-variant:normal;font-weight:normal;writing-mode:lr-tb;fill:#000000;fill-opacity:1;fill-rule:nonzero;stroke:none;font-family:Arial;-inkscape-font-specification:Arial">Action</tspan></text>
<g
                 transform="translate(260.997,497.091)"
                 id="g300" /></g></g><g
             transform="translate(-261.265,-239.79)"
             id="g302" /></g></g><g
         id="g304"
         transform="translate(-0.268,257.301)"><path
           inkscape:connector-curvature="0"
           id="path306"
           style="fill:none;stroke:#000000;stroke-width:1.19553006;stroke-linecap:butt;stroke-linejoin:miter;stroke-miterlimit:10;stroke-opacity:1;stroke-dasharray:none"
           d="m 276.0221,258.71332 c 0,44.09524 -67.77703,24.75478 -112.8287,24.75478" /><g
           transform="matrix(0,-1,1,0,276.0221,258.71332)"
           id="g308"><g
             id="g310"><path
               inkscape:connector-curvature="0"
               id="path312"
               style="fill:none;stroke:#000000;stroke-width:0.95639998;stroke-linecap:round;stroke-linejoin:round;stroke-miterlimit:10;stroke-opacity:1;stroke-dasharray:none"
               d="M -1.91284,2.55046 C -1.75343,1.59402 0,0.15938 0.4782,0 0,-0.15938 -1.75343,-1.59402 -1.91284,-2.55046" /></g></g></g><g
         id="g314"
         transform="translate(-0.268,257.301)"><g
           id="g316"><g
             id="g318"><g
               clip-path="url(#clipPath322)"
               id="g320"><g
                 transform="matrix(0.96727,0,0,0.567,141.73404,206.13483)"
                 id="g326"><g
                   id="g328"><g
                     transform="translate(-50,-50)"
                     id="g330"><g
                       id="g332"><g
                         clip-path="url(#clipPath336)"
                         id="g334"><path
                           inkscape:connector-curvature="0"
                           id="path352"
                           style="fill:url(#linearGradient9546);stroke:none"
                           d="M 0,0 100,0 100,100 0,100 0,0 z" /></g></g></g></g></g></g></g><path
             inkscape:connector-curvature="0"
             id="path354"
             style="fill:none;stroke:#808080;stroke-width:0.3985;stroke-linecap:butt;stroke-linejoin:miter;stroke-miterlimit:10;stroke-opacity:1;stroke-dasharray:none"
             d="m 161.9279,220.30821 -40.38772,0 c -2.20095,0 -3.98511,-1.78416 -3.98511,-3.98511 l 0,-20.37657 c 0,-2.20094 1.78416,-3.9851 3.98511,-3.9851 l 40.38772,0 c 2.20095,0 3.98511,1.78416 3.98511,3.9851 l 0,20.37657 c 0,2.20095 -1.78416,3.98511 -3.98511,3.98511 z" /></g><g
           transform="translate(123.223,202.541)"
           id="g356"><g
             id="g358"><g
               transform="translate(-122.955,-459.842)"
               id="g360"><text
                 id="text362"
                 transform="matrix(1,0,0,-1,122.955,459.842)"><tspan
                   id="tspan364"
                   sodipodi:role="line"
                   y="0"
                   x="0 7.3037376 13.090681 18.568785 21.114117 26.204782 31.43339"
                   style="font-size:9.96259975px;font-variant:normal;font-weight:normal;writing-mode:lr-tb;fill:#000000;fill-opacity:1;fill-rule:nonzero;stroke:none;font-family:Arial;-inkscape-font-specification:Arial">Boolean</tspan></text>
<g
                 transform="translate(122.955,459.842)"
                 id="g366" /></g></g><g
             transform="translate(-123.223,-202.541)"
             id="g368" /></g></g><g
         id="g370"
         transform="translate(-0.268,257.301)"><g
           id="g372"><path
             inkscape:connector-curvature="0"
             id="path374"
             style="fill:none;stroke:#000000;stroke-width:1.19553006;stroke-linecap:butt;stroke-linejoin:miter;stroke-miterlimit:10;stroke-opacity:1;stroke-dasharray:none"
             d="m 141.73404,221.46388 0,7.54772" /><g
             transform="matrix(0,-1,1,0,141.73404,221.46388)"
             id="g376"><g
               id="g378"><path
                 inkscape:connector-curvature="0"
                 id="path380"
                 style="fill:none;stroke:#000000;stroke-width:0.95639998;stroke-linecap:round;stroke-linejoin:round;stroke-miterlimit:10;stroke-opacity:1;stroke-dasharray:none"
                 d="M -1.91284,2.55046 C -1.75343,1.59402 0,0.15938 0.4782,0 0,-0.15938 -1.75343,-1.59402 -1.91284,-2.55046" /></g></g></g></g><g
         id="g382"
         transform="translate(-0.268,257.301)"><g
           id="g384"><g
             id="g386"><g
               clip-path="url(#clipPath390)"
               id="g388"><g
                 transform="matrix(1.28981,0,0,0.567,141.73404,168.88538)"
                 id="g394"><g
                   id="g396"><g
                     transform="translate(-50,-50)"
                     id="g398"><g
                       id="g400"><g
                         clip-path="url(#clipPath404)"
                         id="g402"><path
                           inkscape:connector-curvature="0"
                           id="path420"
                           style="fill:url(#linearGradient9548);stroke:none"
                           d="M 0,0 100,0 100,100 0,100 0,0 z" /></g></g></g></g></g></g></g><path
             inkscape:connector-curvature="0"
             id="path422"
             style="fill:none;stroke:#808080;stroke-width:0.3985;stroke-linecap:butt;stroke-linejoin:miter;stroke-miterlimit:10;stroke-opacity:1;stroke-dasharray:none"
             d="m 169.99025,183.05879 -56.51242,0 c -2.20094,0 -3.98511,-1.78416 -3.98511,-3.98511 l 0,-20.37657 c 0,-2.20094 1.78417,-3.98511 3.98511,-3.98511 l 56.51242,0 c 2.20095,0 3.98511,1.78417 3.98511,3.98511 l 0,20.37657 c 0,2.20095 -1.78416,3.98511 -3.98511,3.98511 z" /></g><g
           transform="translate(115.161,166.26)"
           id="g424"><g
             id="g426"><g
               transform="translate(-114.893,-423.561)"
               id="g428"><text
                 id="text430"
                 transform="matrix(1,0,0,-1,114.893,423.561)"><tspan
                   id="tspan432"
                   sodipodi:role="line"
                   y="0"
                   x="0 7.0002646 12.478368 21.109949 26.698404 31.628134 35.335781 37.881111 42.080551 47.558655"
                   style="font-size:9.96259975px;font-variant:normal;font-weight:normal;writing-mode:lr-tb;fill:#000000;fill-opacity:1;fill-rule:nonzero;stroke:none;font-family:Arial;-inkscape-font-specification:Arial">Comparison</tspan></text>
<g
                 transform="translate(114.893,423.561)"
                 id="g434" /></g></g><g
             transform="translate(-115.161,-166.26)"
             id="g436" /></g></g><g
         id="g438"
         transform="translate(-0.268,257.301)"><g
           id="g440"><path
             inkscape:connector-curvature="0"
             id="path442"
             style="fill:none;stroke:#000000;stroke-width:1.19553006;stroke-linecap:butt;stroke-linejoin:miter;stroke-miterlimit:10;stroke-opacity:1;stroke-dasharray:none"
             d="m 141.73404,184.21446 0,7.54772" /><g
             transform="matrix(0,-1,1,0,141.73404,184.21446)"
             id="g444"><g
               id="g446"><path
                 inkscape:connector-curvature="0"
                 id="path448"
                 style="fill:none;stroke:#000000;stroke-width:0.95639998;stroke-linecap:round;stroke-linejoin:round;stroke-miterlimit:10;stroke-opacity:1;stroke-dasharray:none"
                 d="M -1.91284,2.55046 C -1.75343,1.59402 0,0.15938 0.4782,0 0,-0.15938 -1.75343,-1.59402 -1.91284,-2.55046" /></g></g></g></g><g
         id="g450"
         transform="translate(-0.268,257.301)"><g
           id="g452"><g
             id="g454"><g
               clip-path="url(#clipPath458)"
               id="g456"><g
                 transform="matrix(0.8505,0,0,0.567,141.73404,111.79329)"
                 id="g462"><g
                   id="g464"><g
                     transform="translate(-50,-50)"
                     id="g466"><g
                       id="g468"><g
                         clip-path="url(#clipPath472)"
                         id="g470"><path
                           inkscape:connector-curvature="0"
                           id="path488"
                           style="fill:url(#linearGradient9550);stroke:none"
                           d="M 0,0 100,0 100,100 0,100 0,0 z" /></g></g></g></g></g></g></g><path
             inkscape:connector-curvature="0"
             id="path490"
             style="fill:none;stroke:#808080;stroke-width:0.3985;stroke-linecap:butt;stroke-linejoin:miter;stroke-miterlimit:10;stroke-opacity:1;stroke-dasharray:none"
             d="m 159.00903,125.96669 -34.54998,0 c -2.20095,0 -3.98511,-1.78416 -3.98511,-3.98511 l 0,-20.37658 c 0,-2.20095 1.78416,-3.98511 3.98511,-3.98511 l 34.54998,0 c 2.20095,0 3.98511,1.78416 3.98511,3.98511 l 0,20.37658 c 0,2.20095 -1.78416,3.98511 -3.98511,3.98511 z" /></g><g
           transform="translate(126.906,108.201)"
           id="g492"><g
             id="g494"><g
               transform="translate(-126.638,-365.502)"
               id="g496"><text
                 id="text498"
                 transform="matrix(1,0,0,-1,126.638,365.502)"><tspan
                   id="tspan500"
                   sodipodi:role="line"
                   y="0"
                   x="0 6.9948969 12.233467 14.7788 20.367256 25.457922"
                   style="font-size:9.96259975px;font-variant:normal;font-weight:normal;writing-mode:lr-tb;fill:#000000;fill-opacity:1;fill-rule:nonzero;stroke:none;font-family:Arial;-inkscape-font-specification:Arial">Values</tspan></text>
<g
                 transform="translate(126.638,365.502)"
                 id="g502" /></g></g><g
             transform="translate(-126.906,-108.201)"
             id="g504" /></g></g><g
         id="g506"
         transform="translate(-0.268,257.301)"><g
           id="g508"><path
             inkscape:connector-curvature="0"
             id="path510"
             style="fill:none;stroke:#000000;stroke-width:1.19553006;stroke-linecap:butt;stroke-linejoin:miter;stroke-miterlimit:10;stroke-opacity:1;stroke-dasharray:none"
             d="m 141.73404,127.12236 0,27.39038" /><g
             transform="matrix(0,-1,1,0,141.73404,127.12236)"
             id="g512"><g
               id="g514"><path
                 inkscape:connector-curvature="0"
                 id="path516"
                 style="fill:none;stroke:#000000;stroke-width:0.95639998;stroke-linecap:round;stroke-linejoin:round;stroke-miterlimit:10;stroke-opacity:1;stroke-dasharray:none"
                 d="M -1.91284,2.55046 C -1.75343,1.59402 0,0.15938 0.4782,0 0,-0.15938 -1.75343,-1.59402 -1.91284,-2.55046" /></g></g></g></g><g
         id="g518"
         transform="translate(-0.268,257.301)"><g
           id="g520"><g
             id="g522"><g
               clip-path="url(#clipPath526)"
               id="g524"><g
                 transform="matrix(1.36324,0,0,0.6096,214.562,206.13483)"
                 id="g530"><g
                   id="g532"><g
                     transform="translate(-50,-50)"
                     id="g534"><g
                       id="g536"><g
                         clip-path="url(#clipPath540)"
                         id="g538"><path
                           inkscape:connector-curvature="0"
                           id="path556"
                           style="fill:url(#linearGradient9552);stroke:none"
                           d="M 0,0 100,0 100,100 0,100 0,0 z" /></g></g></g></g></g></g></g><path
             inkscape:connector-curvature="0"
             id="path558"
             style="fill:none;stroke:#808080;stroke-width:0.3985;stroke-linecap:butt;stroke-linejoin:miter;stroke-miterlimit:10;stroke-opacity:1;stroke-dasharray:none"
             d="m 244.65395,221.37318 -60.1839,0 c -2.20095,0 -3.98511,-1.78416 -3.98511,-3.9851 l 0,-22.5065 c 0,-2.20095 1.78416,-3.98511 3.98511,-3.98511 l 60.1839,0 c 2.20094,0 3.9851,1.78416 3.9851,3.98511 l 0,22.5065 c 0,2.20094 -1.78416,3.9851 -3.9851,3.9851 z" /></g><g
           transform="translate(186.152,196.563)"
           id="g560"><g
             id="g562"><g
               transform="translate(-185.884,-453.864)"
               id="g564"><text
                 id="text566"
                 transform="matrix(1,0,0,-1,185.884,465.82)"><tspan
                   id="tspan568"
                   sodipodi:role="line"
                   y="0"
                   x="0 5.2286077 10.817064 16.405521 23.104919 28.274181 31.981827 38.681225 44.26968 49.747784 53.773296"
                   style="font-size:9.96259975px;font-variant:normal;font-weight:normal;writing-mode:lr-tb;fill:#000000;fill-opacity:1;fill-rule:nonzero;stroke:none;font-family:Arial;-inkscape-font-specification:Arial">and,or,not,</tspan><tspan
                   id="tspan570"
                   sodipodi:role="line"
                   y="11.956"
                   x="0 5.0906653 10.070977 14.940935 17.486267 23.074724 27.274164 29.819496 34.799809 39.890472 43.542942 48.712204"
                   style="font-size:9.96259975px;font-variant:normal;font-weight:normal;writing-mode:lr-tb;fill:#000000;fill-opacity:1;fill-rule:nonzero;stroke:none;font-family:Arial;-inkscape-font-specification:Arial">exclusive-or</tspan></text>
<g
                 transform="translate(185.884,453.864)"
                 id="g572" /></g></g><g
             transform="translate(-186.152,-196.563)"
             id="g574" /></g></g><g
         id="g576"
         transform="translate(-0.268,257.301)"><g
           id="g578"><path
             inkscape:connector-curvature="0"
             id="path580"
             style="fill:none;stroke:#000000;stroke-width:1.19553006;stroke-linecap:butt;stroke-linejoin:miter;stroke-miterlimit:10;stroke-opacity:1;stroke-dasharray:none"
             d="m 179.32927,206.13483 -13.217,0" /><g
             transform="translate(179.32927,206.13483)"
             id="g582"><g
               id="g584"><path
                 inkscape:connector-curvature="0"
                 id="path586"
                 style="fill:none;stroke:#000000;stroke-width:0.95639998;stroke-linecap:round;stroke-linejoin:round;stroke-miterlimit:10;stroke-opacity:1;stroke-dasharray:none"
                 d="M -1.91284,2.55046 C -1.75343,1.59402 0,0.15938 0.4782,0 0,-0.15938 -1.75343,-1.59402 -1.91284,-2.55046" /></g></g></g></g><g
         id="g588"
         transform="translate(-0.268,257.301)"><g
           id="g590"><g
             id="g592"><g
               clip-path="url(#clipPath596)"
               id="g594"><g
                 transform="matrix(1.25859,0,0,0.58115,220.00826,168.88539)"
                 id="g600"><g
                   id="g602"><g
                     transform="translate(-50,-50)"
                     id="g604"><g
                       id="g606"><g
                         clip-path="url(#clipPath610)"
                         id="g608"><path
                           inkscape:connector-curvature="0"
                           id="path626"
                           style="fill:url(#linearGradient9554);stroke:none"
                           d="M 0,0 100,0 100,100 0,100 0,0 z" /></g></g></g></g></g></g></g><path
             inkscape:connector-curvature="0"
             id="path628"
             style="fill:none;stroke:#808080;stroke-width:0.3985;stroke-linecap:butt;stroke-linejoin:miter;stroke-miterlimit:10;stroke-opacity:1;stroke-dasharray:none"
             d="m 247.48413,183.41263 -54.95175,0 c -2.20094,0 -3.98511,-1.78417 -3.98511,-3.98511 l 0,-21.08424 c 0,-2.20095 1.78417,-3.98511 3.98511,-3.98511 l 54.95175,0 c 2.20094,0 3.98511,1.78416 3.98511,3.98511 l 0,21.08424 c 0,2.20094 -1.78417,3.98511 -3.98511,3.98511 z" /></g><g
           transform="translate(194.214,160.415)"
           id="g630"><g
             id="g632"><g
               transform="translate(-193.946,-417.716)"
               id="g634"><text
                 id="text636"
                 transform="matrix(1,0,0,-1,193.946,429.671)"><tspan
                   id="tspan638"
                   sodipodi:role="line"
                   y="0"
                   x="0 11.405185"
                   style="font-size:9.96259975px;font-variant:normal;font-weight:normal;writing-mode:lr-tb;fill:#000000;fill-opacity:1;fill-rule:nonzero;stroke:none;font-family:CMMI10;-inkscape-font-specification:CMMI10">&lt;&gt;</tspan></text>
<text
                 id="text640"
                 transform="matrix(1,0,0,-1,216.748,429.671)"><tspan
                   id="tspan642"
                   sodipodi:role="line"
                   y="0"
                   x="0 7.7489104"
                   style="font-size:9.96259975px;font-variant:normal;font-weight:normal;writing-mode:lr-tb;fill:#000000;fill-opacity:1;fill-rule:nonzero;stroke:none;font-family:CMR10;-inkscape-font-specification:CMR10">==</tspan></text>
<text
                 id="text644"
                 transform="matrix(1,0,0,-1,193.946,417.716)"><tspan
                   id="tspan646"
                   y="0"
                   x="0"
                   style="font-size:9.96259975px;font-variant:normal;font-weight:normal;writing-mode:lr-tb;fill:#000000;fill-opacity:1;fill-rule:nonzero;stroke:none;font-family:CMMI10;-inkscape-font-specification:CMMI10">&lt;</tspan></text>
<text
                 id="text648"
                 transform="matrix(1,0,0,-1,201.695,417.716)"><tspan
                   id="tspan650"
                   y="0"
                   x="0"
                   style="font-size:9.96259975px;font-variant:normal;font-weight:normal;writing-mode:lr-tb;fill:#000000;fill-opacity:1;fill-rule:nonzero;stroke:none;font-family:CMR10;-inkscape-font-specification:CMR10">=</tspan></text>
<text
                 id="text652"
                 transform="matrix(1,0,0,-1,213.096,417.716)"><tspan
                   id="tspan654"
                   y="0"
                   x="0"
                   style="font-size:9.96259975px;font-variant:normal;font-weight:normal;writing-mode:lr-tb;fill:#000000;fill-opacity:1;fill-rule:nonzero;stroke:none;font-family:CMMI10;-inkscape-font-specification:CMMI10">&gt;</tspan></text>
<text
                 id="text656"
                 transform="matrix(1,0,0,-1,220.845,417.716)"><tspan
                   id="tspan658"
                   sodipodi:role="line"
                   y="0"
                   x="0 11.405185 16.932434"
                   style="font-size:9.96259975px;font-variant:normal;font-weight:normal;writing-mode:lr-tb;fill:#000000;fill-opacity:1;fill-rule:nonzero;stroke:none;font-family:CMR10;-inkscape-font-specification:CMR10">=!=</tspan></text>
<g
                 transform="translate(193.946,417.716)"
                 id="g660" /></g></g><g
             transform="translate(-194.214,-160.415)"
             id="g662" /></g></g><g
         id="g664"
         transform="translate(-0.268,257.301)"><g
           id="g666"><path
             inkscape:connector-curvature="0"
             id="path668"
             style="fill:none;stroke:#000000;stroke-width:1.19553006;stroke-linecap:butt;stroke-linejoin:miter;stroke-miterlimit:10;stroke-opacity:1;stroke-dasharray:none"
             d="m 187.3916,168.88539 -13.217,0" /><g
             transform="translate(187.3916,168.88539)"
             id="g670"><g
               id="g672"><path
                 inkscape:connector-curvature="0"
                 id="path674"
                 style="fill:none;stroke:#000000;stroke-width:0.95639998;stroke-linecap:round;stroke-linejoin:round;stroke-miterlimit:10;stroke-opacity:1;stroke-dasharray:none"
                 d="M -1.91284,2.55046 C -1.75343,1.59402 0,0.15938 0.4782,0 0,-0.15938 -1.75343,-1.59402 -1.91284,-2.55046" /></g></g></g></g><g
         id="g676"
         transform="translate(-0.268,257.301)"><g
           id="g678"><g
             id="g680"><g
               clip-path="url(#clipPath684)"
               id="g682"><g
                 transform="matrix(0.86035,0,0,0.40921,213.24573,111.79329)"
                 id="g688"><g
                   id="g690"><g
                     transform="translate(-50,-50)"
                     id="g692"><g
                       id="g694"><g
                         clip-path="url(#clipPath698)"
                         id="g696"><path
                           inkscape:connector-curvature="0"
                           id="path714"
                           style="fill:url(#linearGradient9556);stroke:none"
                           d="M 0,0 100,0 100,100 0,100 0,0 z" /></g></g></g></g></g></g></g><path
             inkscape:connector-curvature="0"
             id="path716"
             style="fill:none;stroke:#808080;stroke-width:0.3985;stroke-linecap:butt;stroke-linejoin:miter;stroke-miterlimit:10;stroke-opacity:1;stroke-dasharray:none"
             d="m 230.76692,122.02235 -35.04236,0 c -2.20094,0 -3.9851,-1.78416 -3.9851,-3.9851 l 0,-12.48792 c 0,-2.20094 1.78416,-3.98511 3.9851,-3.98511 l 35.04236,0 c 2.20094,0 3.98511,1.78417 3.98511,3.98511 l 0,12.48792 c 0,2.20094 -1.78417,3.9851 -3.98511,3.9851 z" /></g><g
           transform="translate(197.407,109.169)"
           id="g718"><g
             id="g720"><g
               transform="translate(-197.139,-366.47)"
               id="g722"><text
                 id="text724"
                 transform="matrix(1,0,0,-1,197.139,366.47)"><tspan
                   id="tspan726"
                   sodipodi:role="line"
                   y="0"
                   x="0 6.0862479 8.6315804 14.109684 19.698141 24.926748 27.47208"
                   style="font-size:9.96259975px;font-variant:normal;font-weight:normal;writing-mode:lr-tb;fill:#000000;fill-opacity:1;fill-rule:nonzero;stroke:none;font-family:Arial;-inkscape-font-specification:Arial">Signals</tspan></text>
<g
                 transform="translate(197.139,366.47)"
                 id="g728" /></g></g><g
             transform="translate(-197.407,-109.169)"
             id="g730" /></g></g><g
         id="g732"
         transform="translate(-0.268,257.301)"><g
           id="g734"><path
             inkscape:connector-curvature="0"
             id="path736"
             style="fill:none;stroke:#000000;stroke-width:1.19553006;stroke-linecap:butt;stroke-linejoin:miter;stroke-miterlimit:10;stroke-opacity:1;stroke-dasharray:none"
             d="m 190.58379,111.79329 -27.39039,0" /><g
             transform="translate(190.58379,111.79329)"
             id="g738"><g
               id="g740"><path
                 inkscape:connector-curvature="0"
                 id="path742"
                 style="fill:none;stroke:#000000;stroke-width:0.95639998;stroke-linecap:round;stroke-linejoin:round;stroke-miterlimit:10;stroke-opacity:1;stroke-dasharray:none"
                 d="M -1.91284,2.55046 C -1.75343,1.59402 0,0.15938 0.4782,0 0,-0.15938 -1.75343,-1.59402 -1.91284,-2.55046" /></g></g></g></g><g
         id="g744"
         transform="translate(-0.268,257.301)"><g
           id="g746"><g
             id="g748"><g
               clip-path="url(#clipPath752)"
               id="g750"><g
                 transform="matrix(1.13362,0,0,0.36514,213.24573,137.21793)"
                 id="g756"><g
                   id="g758"><g
                     transform="translate(-50,-50)"
                     id="g760"><g
                       id="g762"><g
                         clip-path="url(#clipPath766)"
                         id="g764"><path
                           inkscape:connector-curvature="0"
                           id="path782"
                           style="fill:url(#linearGradient9558);stroke:none"
                           d="M 0,0 100,0 100,100 0,100 0,0 z" /></g></g></g></g></g></g></g><path
             inkscape:connector-curvature="0"
             id="path784"
             style="fill:none;stroke:#808080;stroke-width:0.3985;stroke-linecap:butt;stroke-linejoin:miter;stroke-miterlimit:10;stroke-opacity:1;stroke-dasharray:none"
             d="m 237.59805,146.34573 -48.70462,0 c -2.20094,0 -3.9851,-1.78416 -3.9851,-3.9851 l 0,-10.28539 c 0,-2.20094 1.78416,-3.98511 3.9851,-3.98511 l 48.70462,0 c 2.20095,0 3.98511,1.78417 3.98511,3.98511 l 0,10.28539 c 0,2.20094 -1.78416,3.9851 -3.98511,3.9851 z" /></g><g
           transform="translate(190.576,133.758)"
           id="g786"><g
             id="g788"><g
               transform="translate(-190.308,-391.059)"
               id="g790"><text
                 id="text792"
                 transform="matrix(1,0,0,-1,190.308,391.059)"><tspan
                   id="tspan794"
                   sodipodi:role="line"
                   y="0"
                   x="0 7.0002646 12.478368 18.066824 22.266264 26.291775 31.520384 37.108841 41.134354"
                   style="font-size:9.96259975px;font-variant:normal;font-weight:normal;writing-mode:lr-tb;fill:#000000;fill-opacity:1;fill-rule:nonzero;stroke:none;font-family:Arial;-inkscape-font-specification:Arial">Constants</tspan></text>
<g
                 transform="translate(190.308,391.059)"
                 id="g796" /></g></g><g
             transform="translate(-190.576,-133.758)"
             id="g798" /></g></g><g
         id="g800"
         transform="translate(-0.268,257.301)"><g
           id="g802"><path
             inkscape:connector-curvature="0"
             id="path804"
             style="fill:none;stroke:#000000;stroke-width:1.19553006;stroke-linecap:butt;stroke-linejoin:miter;stroke-miterlimit:10;stroke-opacity:1;stroke-dasharray:none"
             d="M 186.10956,127.56993 163.1934,119.4224" /><g
             transform="matrix(0.94386,0.33557,-0.33557,0.94386,186.10956,127.56993)"
             id="g806"><g
               id="g808"><path
                 inkscape:connector-curvature="0"
                 id="path810"
                 style="fill:none;stroke:#000000;stroke-width:0.95639998;stroke-linecap:round;stroke-linejoin:round;stroke-miterlimit:10;stroke-opacity:1;stroke-dasharray:none"
                 d="M -1.91284,2.55046 C -1.75343,1.59402 0,0.15938 0.4782,0 0,-0.15938 -1.75343,-1.59402 -1.91284,-2.55046" /></g></g></g></g><g
         id="g812"
         transform="translate(-0.268,257.301)"><g
           id="g814"><g
             id="g816"><g
               clip-path="url(#clipPath820)"
               id="g818"><g
                 transform="matrix(0.97806,0,0,0.37047,213.24574,86.23575)"
                 id="g824"><g
                   id="g826"><g
                     transform="translate(-50,-50)"
                     id="g828"><g
                       id="g830"><g
                         clip-path="url(#clipPath834)"
                         id="g832"><path
                           inkscape:connector-curvature="0"
                           id="path850"
                           style="fill:url(#linearGradient9560);stroke:none"
                           d="M 0,0 100,0 100,100 0,100 0,0 z" /></g></g></g></g></g></g></g><path
             inkscape:connector-curvature="0"
             id="path852"
             style="fill:none;stroke:#808080;stroke-width:0.3985;stroke-linecap:butt;stroke-linejoin:miter;stroke-miterlimit:10;stroke-opacity:1;stroke-dasharray:none"
             d="m 233.70937,95.49644 -40.92725,0 c -2.20094,0 -3.98511,-1.78416 -3.98511,-3.9851 l 0,-10.55118 c 0,-2.20094 1.78417,-3.98511 3.98511,-3.98511 l 40.92725,0 c 2.20094,0 3.9851,1.78417 3.9851,3.98511 l 0,10.55118 c 0,2.20094 -1.78416,3.9851 -3.9851,3.9851 z" /></g><g
           transform="translate(194.464,82.643)"
           id="g854"><g
             id="g856"><g
               transform="translate(-194.196,-339.944)"
               id="g858"><text
                 id="text860"
                 transform="matrix(1,0,0,-1,194.196,339.944)"><tspan
                   id="tspan862"
                   sodipodi:role="line"
                   y="0"
                   x="0 6.3909202 11.371232 15.396744 20.48741 24.195055 29.783512 35.012119"
                   style="font-size:9.96259975px;font-variant:normal;font-weight:normal;writing-mode:lr-tb;fill:#000000;fill-opacity:1;fill-rule:nonzero;stroke:none;font-family:Arial;-inkscape-font-specification:Arial">External</tspan></text>
<g
                 transform="translate(194.196,339.944)"
                 id="g864" /></g></g><g
             transform="translate(-194.464,-82.643)"
             id="g866" /></g></g><g
         id="g868"
         transform="translate(-0.268,257.301)"><g
           id="g870"><path
             inkscape:connector-curvature="0"
             id="path872"
             style="fill:none;stroke:#000000;stroke-width:1.19553006;stroke-linecap:butt;stroke-linejoin:miter;stroke-miterlimit:10;stroke-opacity:1;stroke-dasharray:none"
             d="m 187.69504,95.36409 -24.50164,8.76015" /><g
             transform="matrix(0.94386,-0.33746,0.33746,0.94386,187.69504,95.36409)"
             id="g874"><g
               id="g876"><path
                 inkscape:connector-curvature="0"
                 id="path878"
                 style="fill:none;stroke:#000000;stroke-width:0.95639998;stroke-linecap:round;stroke-linejoin:round;stroke-miterlimit:10;stroke-opacity:1;stroke-dasharray:none"
                 d="M -1.91284,2.55046 C -1.75343,1.59402 0,0.15938 0.4782,0 0,-0.15938 -1.75343,-1.59402 -1.91284,-2.55046" /></g></g></g></g><g
         id="g880"
         transform="translate(-0.268,257.301)"><g
           id="g882"><g
             id="g884"><g
               clip-path="url(#clipPath888)"
               id="g886"><g
                 transform="matrix(1.22035,0,0,0.89854,61.22343,111.79329)"
                 id="g892"><g
                   id="g894"><g
                     transform="translate(-50,-50)"
                     id="g896"><g
                       id="g898"><g
                         clip-path="url(#clipPath902)"
                         id="g900"><path
                           inkscape:connector-curvature="0"
                           id="path918"
                           style="fill:url(#linearGradient9562);stroke:none"
                           d="M 0,0 100,0 100,100 0,100 0,0 z" /></g></g></g></g></g></g></g><path
             inkscape:connector-curvature="0"
             id="path920"
             style="fill:none;stroke:#808080;stroke-width:0.3985;stroke-linecap:butt;stroke-linejoin:miter;stroke-miterlimit:10;stroke-opacity:1;stroke-dasharray:none"
             d="m 87.74352,134.25435 -53.04014,0 c -2.20094,0 -3.9851,-1.78417 -3.9851,-3.98511 l 0,-36.9519 c 0,-2.20094 1.78416,-3.98511 3.9851,-3.98511 l 53.04014,0 c 2.20094,0 3.9851,1.78417 3.9851,3.98511 l 0,36.9519 c 0,2.20094 -1.78416,3.98511 -3.9851,3.98511 z" /></g><g
           transform="translate(36.388,97.491)"
           id="g922"><g
             id="g924"><g
               transform="translate(-36.12,-354.792)"
               id="g926"><text
                 id="text928"
                 transform="matrix(1,0,0,-1,36.12,378.702)"><tspan
                   id="tspan930"
                   sodipodi:role="line"
                   y="0"
                   x="0 7.3037376 11.011383 13.556716 17.582228 23.170685 31.802265 36.892929 40.918442 43.463776"
                   style="font-size:9.96259975px;font-variant:normal;font-weight:normal;writing-mode:lr-tb;fill:#000000;fill-opacity:1;fill-rule:nonzero;stroke:none;font-family:Arial;-inkscape-font-specification:Arial">Arithmetic</tspan><tspan
                   id="tspan932"
                   sodipodi:role="line"
                   y="11.955"
                   x="0 7.9130821 13.810379 18.901045 22.598728 27.837297 31.86281 34.408142 39.886246 45.474701"
                   style="font-size:9.96259975px;font-variant:normal;font-weight:normal;writing-mode:lr-tb;fill:#000000;fill-opacity:1;fill-rule:nonzero;stroke:none;font-family:Arial;-inkscape-font-specification:Arial">Operations</tspan><tspan
                   id="tspan934"
                   sodipodi:role="line"
                   y="23.91"
                   x="0 4.2606134 16.438114"
                   style="font-size:9.96259975px;font-variant:normal;font-weight:normal;writing-mode:lr-tb;fill:#000000;fill-opacity:1;fill-rule:nonzero;stroke:none;font-family:Arial;-inkscape-font-specification:Arial">(+-</tspan></text>
<text
                 id="text936"
                 transform="matrix(1,0,0,-1,59.858,354.792)"><tspan
                   id="tspan938"
                   y="0"
                   x="0"
                   style="font-size:9.96259975px;font-variant:normal;font-weight:normal;writing-mode:lr-tb;fill:#000000;fill-opacity:1;fill-rule:nonzero;stroke:none;font-family:CMSY10;-inkscape-font-specification:CMSY10">∗</tspan></text>
<text
                 id="text940"
                 transform="matrix(1,0,0,-1,68.491,354.792)"><tspan
                   id="tspan942"
                   sodipodi:role="line"
                   y="0"
                   x="0 5.4781032"
                   style="font-size:9.96259975px;font-variant:normal;font-weight:normal;writing-mode:lr-tb;fill:#000000;fill-opacity:1;fill-rule:nonzero;stroke:none;font-family:Arial;-inkscape-font-specification:Arial">/)</tspan></text>
<g
                 transform="translate(36.12,354.792)"
                 id="g944" /></g></g><g
             transform="translate(-36.388,-97.491)"
             id="g946" /></g></g><g
         id="g948"
         transform="translate(-0.268,257.301)"><g
           id="g950"><path
             inkscape:connector-curvature="0"
             id="path952"
             style="fill:none;stroke:#000000;stroke-width:1.19553006;stroke-linecap:butt;stroke-linejoin:miter;stroke-miterlimit:10;stroke-opacity:1;stroke-dasharray:none"
             d="m 92.71138,134.1059 28.76573,20.40684" /><g
             transform="matrix(-0.81923,-0.58118,0.58118,-0.81923,92.71138,134.1059)"
             id="g954"><g
               id="g956"><path
                 inkscape:connector-curvature="0"
                 id="path958"
                 style="fill:none;stroke:#000000;stroke-width:0.95639998;stroke-linecap:round;stroke-linejoin:round;stroke-miterlimit:10;stroke-opacity:1;stroke-dasharray:none"
                 d="M -1.91284,2.55046 C -1.75343,1.59402 0,0.15938 0.4782,0 0,-0.15938 -1.75343,-1.59402 -1.91284,-2.55046" /></g></g></g></g><g
         id="g960"
         transform="translate(-0.268,257.301)"><path
           inkscape:connector-curvature="0"
           id="path962"
           style="fill:none;stroke:#000000;stroke-width:1.19553006;stroke-linecap:butt;stroke-linejoin:miter;stroke-miterlimit:10;stroke-opacity:1;stroke-dasharray:none"
           d="m 119.31827,111.79329 -27.3904,0" /><g
           transform="translate(119.31827,111.79329)"
           id="g964"><g
             id="g966"><path
               inkscape:connector-curvature="0"
               id="path968"
               style="fill:none;stroke:#000000;stroke-width:0.95639998;stroke-linecap:round;stroke-linejoin:round;stroke-miterlimit:10;stroke-opacity:1;stroke-dasharray:none"
               d="M -1.91284,2.55046 C -1.75343,1.59402 0,0.15938 0.4782,0 0,-0.15938 -1.75343,-1.59402 -1.91284,-2.55046" /></g></g></g><g
         id="g970"
         transform="translate(-0.268,257.301)"><g
           id="g972"><g
             id="g974"><g
               clip-path="url(#clipPath978)"
               id="g976"><g
                 transform="matrix(1.1131,0,0,0.37047,318.54231,191.20483)"
                 id="g982"><g
                   id="g984"><g
                     transform="translate(-50,-50)"
                     id="g986"><g
                       id="g988"><g
                         clip-path="url(#clipPath992)"
                         id="g990"><path
                           inkscape:connector-curvature="0"
                           id="path1008"
                           style="fill:url(#linearGradient9564);stroke:none"
                           d="M 0,0 100,0 100,100 0,100 0,0 z" /></g></g></g></g></g></g></g><path
             inkscape:connector-curvature="0"
             id="path1010"
             style="fill:none;stroke:#808080;stroke-width:0.3985;stroke-linecap:butt;stroke-linejoin:miter;stroke-miterlimit:10;stroke-opacity:1;stroke-dasharray:none"
             d="m 342.3814,200.46553 -47.67815,0 c -2.20095,0 -3.98511,-1.78416 -3.98511,-3.98511 l 0,-10.55118 c 0,-2.20094 1.78416,-3.9851 3.98511,-3.9851 l 47.67815,0 c 2.20094,0 3.9851,1.78416 3.9851,3.9851 l 0,10.55118 c 0,2.20095 -1.78416,3.98511 -3.9851,3.98511 z" /></g><g
           transform="translate(296.384,187.611)"
           id="g1012"><g
             id="g1014"><g
               transform="translate(-296.116,-444.912)"
               id="g1016"><text
                 id="text1018"
                 transform="matrix(1,0,0,-1,296.116,444.912)"><tspan
                   id="tspan1020"
                   sodipodi:role="line"
                   y="0"
                   x="0 6.0862479 11.176913 18.8587 25.853596 31.082205 33.627537 39.215992"
                   style="font-size:9.96259975px;font-variant:normal;font-weight:normal;writing-mode:lr-tb;fill:#000000;fill-opacity:1;fill-rule:nonzero;stroke:none;font-family:Arial;-inkscape-font-specification:Arial">SetValue</tspan></text>
<g
                 transform="translate(296.116,444.912)"
                 id="g1022" /></g></g><g
             transform="translate(-296.384,-187.611)"
             id="g1024" /></g></g><g
         id="g1026"
         transform="translate(-0.268,257.301)"><g
           id="g1028"><g
             id="g1030"><g
               clip-path="url(#clipPath1034)"
               id="g1032"><g
                 transform="matrix(1.03589,0,0,0.37047,318.54233,162.85802)"
                 id="g1038"><g
                   id="g1040"><g
                     transform="translate(-50,-50)"
                     id="g1042"><g
                       id="g1044"><g
                         clip-path="url(#clipPath1048)"
                         id="g1046"><path
                           inkscape:connector-curvature="0"
                           id="path1064"
                           style="fill:url(#linearGradient9566);stroke:none"
                           d="M 0,0 100,0 100,100 0,100 0,0 z" /></g></g></g></g></g></g></g><path
             inkscape:connector-curvature="0"
             id="path1066"
             style="fill:none;stroke:#808080;stroke-width:0.3985;stroke-linecap:butt;stroke-linejoin:miter;stroke-miterlimit:10;stroke-opacity:1;stroke-dasharray:none"
             d="m 340.45158,172.11873 -43.81851,0 c -2.20094,0 -3.98511,-1.78417 -3.98511,-3.98511 l 0,-10.55118 c 0,-2.20094 1.78417,-3.9851 3.98511,-3.9851 l 43.81851,0 c 2.20095,0 3.98511,1.78416 3.98511,3.9851 l 0,10.55118 c 0,2.20094 -1.78416,3.98511 -3.98511,3.98511 z" /></g><g
           transform="translate(298.314,159.265)"
           id="g1068"><g
             id="g1070"><g
               transform="translate(-298.046,-416.566)"
               id="g1072"><text
                 id="text1074"
                 transform="matrix(1,0,0,-1,298.046,416.566)"><tspan
                   id="tspan1076"
                   sodipodi:role="line"
                   y="0"
                   x="0 6.0862479 10.956206 16.544662 21.635328 27.223785 32.812241 35.357574"
                   style="font-size:9.96259975px;font-variant:normal;font-weight:normal;writing-mode:lr-tb;fill:#000000;fill-opacity:1;fill-rule:nonzero;stroke:none;font-family:Arial;-inkscape-font-specification:Arial">Schedule</tspan></text>
<g
                 transform="translate(298.046,416.566)"
                 id="g1078" /></g></g><g
             transform="translate(-298.314,-159.265)"
             id="g1080" /></g></g><g
         id="g1082"
         transform="translate(-0.268,257.301)"><g
           id="g1084"><g
             id="g1086"><g
               clip-path="url(#clipPath1090)"
               id="g1088"><g
                 transform="matrix(0.92389,0,0,0.36514,318.54233,134.64409)"
                 id="g1094"><g
                   id="g1096"><g
                     transform="translate(-50,-50)"
                     id="g1098"><g
                       id="g1100"><g
                         clip-path="url(#clipPath1104)"
                         id="g1102"><path
                           inkscape:connector-curvature="0"
                           id="path1120"
                           style="fill:url(#linearGradient9568);stroke:none"
                           d="M 0,0 100,0 100,100 0,100 0,0 z" /></g></g></g></g></g></g></g><path
             inkscape:connector-curvature="0"
             id="path1122"
             style="fill:none;stroke:#808080;stroke-width:0.3985;stroke-linecap:butt;stroke-linejoin:miter;stroke-miterlimit:10;stroke-opacity:1;stroke-dasharray:none"
             d="m 337.65163,143.7719 -38.2186,0 c -2.20094,0 -3.98511,-1.78417 -3.98511,-3.98511 l 0,-10.28539 c 0,-2.20094 1.78417,-3.9851 3.98511,-3.9851 l 38.2186,0 c 2.20094,0 3.9851,1.78416 3.9851,3.9851 l 0,10.28539 c 0,2.20094 -1.78416,3.98511 -3.9851,3.98511 z" /></g><g
           transform="translate(301.114,131.184)"
           id="g1124"><g
             id="g1126"><g
               transform="translate(-300.846,-388.485)"
               id="g1128"><text
                 id="text1130"
                 transform="matrix(1,0,0,-1,300.846,388.485)"><tspan
                   id="tspan1132"
                   sodipodi:role="line"
                   y="0"
                   x="0 7.0002646 10.707911 16.484892 21.354849 26.445515 30.644953"
                   style="font-size:9.96259975px;font-variant:normal;font-weight:normal;writing-mode:lr-tb;fill:#000000;fill-opacity:1;fill-rule:nonzero;stroke:none;font-family:Arial;-inkscape-font-specification:Arial">Process</tspan></text>
<g
                 transform="translate(300.846,388.485)"
                 id="g1134" /></g></g><g
             transform="translate(-301.114,-131.184)"
             id="g1136" /></g></g><g
         id="g1138"
         transform="translate(-0.268,257.301)"><g
           id="g1140"><g
             id="g1142"><g
               clip-path="url(#clipPath1146)"
               id="g1144"><g
                 transform="matrix(0.63135,0,0,0.37047,318.54233,106.16437)"
                 id="g1150"><g
                   id="g1152"><g
                     transform="translate(-50,-50)"
                     id="g1154"><g
                       id="g1156"><g
                         clip-path="url(#clipPath1160)"
                         id="g1158"><path
                           inkscape:connector-curvature="0"
                           id="path1176"
                           style="fill:url(#linearGradient9570);stroke:none"
                           d="M 0,0 100,0 100,100 0,100 0,0 z" /></g></g></g></g></g></g></g><path
             inkscape:connector-curvature="0"
             id="path1178"
             style="fill:none;stroke:#808080;stroke-width:0.3985;stroke-linecap:butt;stroke-linejoin:miter;stroke-miterlimit:10;stroke-opacity:1;stroke-dasharray:none"
             d="m 330.33908,115.42508 -23.59351,0 c -2.20094,0 -3.9851,-1.78418 -3.9851,-3.98511 l 0,-10.55117 c 0,-2.20095 1.78416,-3.98511 3.9851,-3.98511 l 23.59351,0 c 2.20094,0 3.98511,1.78416 3.98511,3.98511 l 0,10.55117 c 0,2.20093 -1.78417,3.98511 -3.98511,3.98511 z" /></g><g
           transform="translate(308.426,102.572)"
           id="g1180"><g
             id="g1182"><g
               transform="translate(-308.158,-359.873)"
               id="g1184"><text
                 id="text1186"
                 transform="matrix(1,0,0,-1,308.158,359.873)"><tspan
                   id="tspan1188"
                   sodipodi:role="line"
                   y="0"
                   x="0 7.0002646 12.588721 15.134054"
                   style="font-size:9.96259975px;font-variant:normal;font-weight:normal;writing-mode:lr-tb;fill:#000000;fill-opacity:1;fill-rule:nonzero;stroke:none;font-family:Arial;-inkscape-font-specification:Arial">Rule</tspan></text>
<g
                 transform="translate(308.158,359.873)"
                 id="g1190" /></g></g><g
             transform="translate(-308.426,-102.572)"
             id="g1192" /></g></g><g
         id="g1194"
         transform="translate(-0.268,257.301)"><path
           inkscape:connector-curvature="0"
           id="path1196"
           style="fill:none;stroke:#000000;stroke-width:1.19553006;stroke-linecap:butt;stroke-linejoin:miter;stroke-miterlimit:10;stroke-opacity:1;stroke-dasharray:none"
           d="m 289.56247,191.20483 -5.57016,0 c -4.40189,0 -7.97021,3.56833 -7.97021,7.97022 l 0,29.83655" /><g
           transform="translate(289.56247,191.20483)"
           id="g1198"><g
             id="g1200"><path
               inkscape:connector-curvature="0"
               id="path1202"
               style="fill:none;stroke:#000000;stroke-width:0.95639998;stroke-linecap:round;stroke-linejoin:round;stroke-miterlimit:10;stroke-opacity:1;stroke-dasharray:none"
               d="M -1.91284,2.55046 C -1.75343,1.59402 0,0.15938 0.4782,0 0,-0.15938 -1.75343,-1.59402 -1.91284,-2.55046" /></g></g><g
           id="g1204"><g
             transform="translate(279.35,191.202)"
             id="g1206"><g
               id="g1208" /><g
               transform="translate(-279.35,-191.202)"
               id="g1210" /></g></g></g><g
         id="g1212"
         transform="translate(-0.268,257.301)"><path
           inkscape:connector-curvature="0"
           id="path1214"
           style="fill:none;stroke:#000000;stroke-width:1.19553006;stroke-linecap:butt;stroke-linejoin:miter;stroke-miterlimit:10;stroke-opacity:1;stroke-dasharray:none"
           d="m 291.4923,162.85803 -7.49999,0 c -4.40189,0 -7.97021,3.56833 -7.97021,7.97022 l 0,58.18335" /><g
           transform="translate(291.4923,162.85803)"
           id="g1216"><g
             id="g1218"><path
               inkscape:connector-curvature="0"
               id="path1220"
               style="fill:none;stroke:#000000;stroke-width:0.95639998;stroke-linecap:round;stroke-linejoin:round;stroke-miterlimit:10;stroke-opacity:1;stroke-dasharray:none"
               d="M -1.91284,2.55046 C -1.75343,1.59402 0,0.15938 0.4782,0 0,-0.15938 -1.75343,-1.59402 -1.91284,-2.55046" /></g></g><g
           id="g1222"><g
             transform="translate(280.315,162.856)"
             id="g1224"><g
               id="g1226" /><g
               transform="translate(-280.315,-162.856)"
               id="g1228" /></g></g></g><g
         id="g1230"
         transform="translate(-0.268,257.301)"><path
           inkscape:connector-curvature="0"
           id="path1232"
           style="fill:none;stroke:#000000;stroke-width:1.19553006;stroke-linecap:butt;stroke-linejoin:miter;stroke-miterlimit:10;stroke-opacity:1;stroke-dasharray:none"
           d="m 294.29225,134.6441 -10.29994,0 c -4.40189,0 -7.97021,3.56833 -7.97021,7.97022 l 0,86.39728" /><g
           transform="translate(294.29225,134.6441)"
           id="g1234"><g
             id="g1236"><path
               inkscape:connector-curvature="0"
               id="path1238"
               style="fill:none;stroke:#000000;stroke-width:0.95639998;stroke-linecap:round;stroke-linejoin:round;stroke-miterlimit:10;stroke-opacity:1;stroke-dasharray:none"
               d="M -1.91284,2.55046 C -1.75343,1.59402 0,0.15938 0.4782,0 0,-0.15938 -1.75343,-1.59402 -1.91284,-2.55046" /></g></g><g
           id="g1240"><g
             transform="translate(281.715,134.642)"
             id="g1242"><g
               id="g1244" /><g
               transform="translate(-281.715,-134.642)"
               id="g1246" /></g></g></g><g
         id="g1248"
         transform="translate(-0.268,257.301)"><path
           inkscape:connector-curvature="0"
           id="path1250"
           style="fill:none;stroke:#000000;stroke-width:1.19553006;stroke-linecap:butt;stroke-linejoin:miter;stroke-miterlimit:10;stroke-opacity:1;stroke-dasharray:none"
           d="m 301.6048,106.16438 -17.61249,0 c -4.40189,0 -7.97021,3.56833 -7.97021,7.97022 l 0,114.877" /><g
           transform="translate(301.6048,106.16438)"
           id="g1252"><g
             id="g1254"><path
               inkscape:connector-curvature="0"
               id="path1256"
               style="fill:none;stroke:#000000;stroke-width:0.95639998;stroke-linecap:round;stroke-linejoin:round;stroke-miterlimit:10;stroke-opacity:1;stroke-dasharray:none"
               d="M -1.91284,2.55046 C -1.75343,1.59402 0,0.15938 0.4782,0 0,-0.15938 -1.75343,-1.59402 -1.91284,-2.55046" /></g></g><g
           id="g1258"><g
             transform="translate(285.371,106.163)"
             id="g1260"><g
               id="g1262" /><g
               transform="translate(-285.371,-106.163)"
               id="g1264" /></g></g></g></g></g></svg>
