<?xml version="1.0" encoding="UTF-8" standalone="no"?>
<!-- Created with Inkscape (http://www.inkscape.org/) -->

<svg
   xmlns:dc="http://purl.org/dc/elements/1.1/"
   xmlns:cc="http://creativecommons.org/ns#"
   xmlns:rdf="http://www.w3.org/1999/02/22-rdf-syntax-ns#"
   xmlns:svg="http://www.w3.org/2000/svg"
   xmlns="http://www.w3.org/2000/svg"
   xmlns:sodipodi="http://sodipodi.sourceforge.net/DTD/sodipodi-0.dtd"
   xmlns:inkscape="http://www.inkscape.org/namespaces/inkscape"
   width="1052.3622"
   height="744.09448"
   id="svg2"
   version="1.1"
   inkscape:version="0.47 r22583"
   sodipodi:docname="standards.svg">
  <defs
     id="defs4">
    <marker
       inkscape:stockid="Arrow1Lend"
       orient="auto"
       refY="0.0"
       refX="0.0"
       id="Arrow1Lend"
       style="overflow:visible;">
      <path
         id="path3780"
         d="M 0.0,0.0 L 5.0,-5.0 L -12.5,0.0 L 5.0,5.0 L 0.0,0.0 z "
         style="fill-rule:evenodd;stroke:#000000;stroke-width:1.0pt;marker-start:none;"
         transform="scale(0.8) rotate(180) translate(12.5,0)" />
    </marker>
    <marker
       inkscape:stockid="Arrow1Lstart"
       orient="auto"
       refY="0.0"
       refX="0.0"
       id="Arrow1Lstart"
       style="overflow:visible">
      <path
         id="path3777"
         d="M 0.0,0.0 L 5.0,-5.0 L -12.5,0.0 L 5.0,5.0 L 0.0,0.0 z "
         style="fill-rule:evenodd;stroke:#000000;stroke-width:1.0pt;marker-start:none"
         transform="scale(0.8) translate(12.5,0)" />
    </marker>
    <inkscape:perspective
       sodipodi:type="inkscape:persp3d"
       inkscape:vp_x="0 : 526.18109 : 1"
       inkscape:vp_y="0 : 1000 : 0"
       inkscape:vp_z="744.09448 : 526.18109 : 1"
       inkscape:persp3d-origin="372.04724 : 350.78739 : 1"
       id="perspective10" />
    <inkscape:perspective
       id="perspective2862"
       inkscape:persp3d-origin="0.5 : 0.33333333 : 1"
       inkscape:vp_z="1 : 0.5 : 1"
       inkscape:vp_y="0 : 1000 : 0"
       inkscape:vp_x="0 : 0.5 : 1"
       sodipodi:type="inkscape:persp3d" />
    <inkscape:perspective
       id="perspective2862-7"
       inkscape:persp3d-origin="0.5 : 0.33333333 : 1"
       inkscape:vp_z="1 : 0.5 : 1"
       inkscape:vp_y="0 : 1000 : 0"
       inkscape:vp_x="0 : 0.5 : 1"
       sodipodi:type="inkscape:persp3d" />
    <inkscape:perspective
       id="perspective2862-9"
       inkscape:persp3d-origin="0.5 : 0.33333333 : 1"
       inkscape:vp_z="1 : 0.5 : 1"
       inkscape:vp_y="0 : 1000 : 0"
       inkscape:vp_x="0 : 0.5 : 1"
       sodipodi:type="inkscape:persp3d" />
    <inkscape:perspective
       id="perspective2923"
       inkscape:persp3d-origin="0.5 : 0.33333333 : 1"
       inkscape:vp_z="1 : 0.5 : 1"
       inkscape:vp_y="0 : 1000 : 0"
       inkscape:vp_x="0 : 0.5 : 1"
       sodipodi:type="inkscape:persp3d" />
    <inkscape:perspective
       id="perspective2962"
       inkscape:persp3d-origin="0.5 : 0.33333333 : 1"
       inkscape:vp_z="1 : 0.5 : 1"
       inkscape:vp_y="0 : 1000 : 0"
       inkscape:vp_x="0 : 0.5 : 1"
       sodipodi:type="inkscape:persp3d" />
  </defs>
  <sodipodi:namedview
     id="base"
     pagecolor="#ffffff"
     bordercolor="#666666"
     borderopacity="1.0"
     inkscape:pageopacity="0.0"
     inkscape:pageshadow="2"
     inkscape:zoom="0.7"
     inkscape:cx="447.85714"
     inkscape:cy="341.42857"
     inkscape:document-units="px"
     inkscape:current-layer="layer1"
     showgrid="false"
     inkscape:window-width="1440"
     inkscape:window-height="826"
     inkscape:window-x="1680"
     inkscape:window-y="25"
     inkscape:window-maximized="1" />
  <metadata
     id="metadata7">
    <rdf:RDF>
      <cc:Work
         rdf:about="">
        <dc:format>image/svg+xml</dc:format>
        <dc:type
           rdf:resource="http://purl.org/dc/dcmitype/StillImage" />
        <dc:title></dc:title>
      </cc:Work>
    </rdf:RDF>
  </metadata>
  <g
     inkscape:label="Layer 1"
     inkscape:groupmode="layer"
     id="layer1"
     transform="translate(0,-308.2677)">
    <g
       id="g2849"
       transform="translate(42.857128,19.928581)">
      <rect
         rx="40"
         ry="40"
         y="863.79077"
         x="734.28571"
         height="121.4285"
         width="219.99997"
         id="rect2816"
         style="fill:#cecece;fill-opacity:1;stroke:#cecece;stroke-width:2;stroke-linecap:butt;stroke-linejoin:round;stroke-miterlimit:4;stroke-opacity:1;stroke-dasharray:2.00000001, 2.00000001;stroke-dashoffset:0" />
      <text
         sodipodi:linespacing="100%"
         id="text2841"
         y="938.58704"
         x="782.41071"
         style="font-size:40px;font-style:normal;font-variant:normal;font-weight:normal;font-stretch:normal;text-align:start;line-height:100%;writing-mode:lr-tb;text-anchor:start;fill:#000000;fill-opacity:1;stroke:none;font-family:Arial;-inkscape-font-specification:Arial"
         xml:space="preserve"><tspan
           id="tspan2845"
           y="938.58704"
           x="782.41071"
           sodipodi:role="line">Device</tspan></text>
    </g>
    <g
       transform="translate(-681.42854,19.928581)"
       id="g2849-2">
      <rect
         rx="40"
         ry="40"
         y="863.79077"
         x="734.28571"
         height="121.4285"
         width="219.99997"
         id="rect2816-8"
         style="fill:#cecece;fill-opacity:1;stroke:#cecece;stroke-width:2;stroke-linecap:butt;stroke-linejoin:round;stroke-miterlimit:4;stroke-opacity:1;stroke-dasharray:2.00000001, 2.00000001;stroke-dashoffset:0" />
      <text
         sodipodi:linespacing="100%"
         id="text2841-0"
         y="938.58704"
         x="782.41071"
         style="font-size:40px;font-style:normal;font-variant:normal;font-weight:normal;font-stretch:normal;text-align:start;line-height:100%;writing-mode:lr-tb;text-anchor:start;fill:#000000;fill-opacity:1;stroke:none;font-family:Arial;-inkscape-font-specification:Arial"
         xml:space="preserve"><tspan
           id="tspan2845-3"
           y="938.58704"
           x="782.41071"
           sodipodi:role="line">Device</tspan></text>
    </g>
    <g
       transform="translate(-440,19.928581)"
       id="g2849-0">
      <rect
         rx="40"
         ry="40"
         y="863.79077"
         x="734.28571"
         height="121.4285"
         width="219.99997"
         id="rect2816-0"
         style="fill:#cecece;fill-opacity:1;stroke:#cecece;stroke-width:2;stroke-linecap:butt;stroke-linejoin:round;stroke-miterlimit:4;stroke-opacity:1;stroke-dasharray:2.00000001, 2.00000001;stroke-dashoffset:0" />
      <text
         sodipodi:linespacing="100%"
         id="text2841-3"
         y="938.58704"
         x="782.41071"
         style="font-size:40px;font-style:normal;font-variant:normal;font-weight:normal;font-stretch:normal;text-align:start;line-height:100%;writing-mode:lr-tb;text-anchor:start;fill:#000000;fill-opacity:1;stroke:none;font-family:Arial;-inkscape-font-specification:Arial"
         xml:space="preserve"><tspan
           id="tspan2845-4"
           y="938.58704"
           x="782.41071"
           sodipodi:role="line">Device</tspan></text>
    </g>
    <g
       transform="translate(-198.57148,19.928581)"
       id="g2849-27">
      <rect
         rx="40"
         ry="40"
         y="863.79077"
         x="734.28571"
         height="121.4285"
         width="219.99997"
         id="rect2816-4"
         style="fill:#cecece;fill-opacity:1;stroke:#cecece;stroke-width:2;stroke-linecap:butt;stroke-linejoin:round;stroke-miterlimit:4;stroke-opacity:1;stroke-dasharray:2.00000001, 2.00000001;stroke-dashoffset:0" />
      <text
         sodipodi:linespacing="100%"
         id="text2841-2"
         y="938.58704"
         x="782.41071"
         style="font-size:40px;font-style:normal;font-variant:normal;font-weight:normal;font-stretch:normal;text-align:start;line-height:100%;writing-mode:lr-tb;text-anchor:start;fill:#000000;fill-opacity:1;stroke:none;font-family:Arial;-inkscape-font-specification:Arial"
         xml:space="preserve"><tspan
           id="tspan2845-5"
           y="938.58704"
           x="782.41071"
           sodipodi:role="line">Device</tspan></text>
    </g>
    <g
       id="g2949"
       transform="translate(-2.714325,-34)">
      <rect
         rx="40"
         ry="40"
         y="644.50507"
         x="390.57144"
         height="121.4285"
         width="274.28568"
         id="rect2816-8-5"
         style="fill:#cecece;fill-opacity:1;stroke:#cecece;stroke-width:2;stroke-linecap:butt;stroke-linejoin:round;stroke-miterlimit:4;stroke-opacity:1;stroke-dasharray:2.00000003, 2.00000003;stroke-dashoffset:0" />
      <text
         sodipodi:linespacing="100%"
         id="text2841-0-4"
         y="715.32672"
         x="428.42719"
         style="font-size:40px;font-style:normal;font-variant:normal;font-weight:normal;font-stretch:normal;text-align:start;line-height:100%;writing-mode:lr-tb;text-anchor:start;fill:#000000;fill-opacity:1;stroke:none;font-family:Arial;-inkscape-font-specification:Arial"
         xml:space="preserve"><tspan
           id="tspan2845-3-2"
           y="715.32672"
           x="428.42719"
           sodipodi:role="line">Aggregator</tspan></text>
    </g>
    <g
       id="g2990"
       transform="translate(26,-16.857143)">
      <rect
         rx="40"
         ry="39.999996"
         y="360.21933"
         x="363.18903"
         height="148.57135"
         width="274.28568"
         id="rect2816-8-5-4"
         style="fill:#cecece;fill-opacity:1;stroke:#cecece;stroke-width:1.99999988;stroke-linecap:butt;stroke-linejoin:round;stroke-miterlimit:4;stroke-opacity:1;stroke-dasharray:1.99999999, 1.99999999;stroke-dashoffset:0" />
      <text
         sodipodi:linespacing="100%"
         id="text2841-0-4-1"
         y="428.82141"
         x="499.60922"
         style="font-size:40px;font-style:normal;font-variant:normal;font-weight:normal;font-stretch:normal;text-align:center;line-height:100%;writing-mode:lr-tb;text-anchor:middle;fill:#000000;fill-opacity:1;stroke:none;font-family:Arial;-inkscape-font-specification:Arial"
         xml:space="preserve"><tspan
           id="tspan2845-3-2-9"
           y="428.82141"
           x="499.60922"
           sodipodi:role="line">Supervisory</tspan><tspan
           id="tspan2988"
           y="468.82141"
           x="499.60922"
           sodipodi:role="line">Control</tspan></text>
    </g>
    <path
       style="fill:none;stroke:#000000;stroke-width:2;stroke-linecap:butt;stroke-linejoin:miter;stroke-opacity:1;marker-start:url(#Arrow1Lstart);marker-mid:none;marker-end:url(#Arrow1Lend);stroke-miterlimit:4;stroke-dasharray:none"
       d="m 521.42857,184.09448 0,117.14286"
       id="path2996"
       transform="translate(0,308.2677)" />
    <path
       style="fill:none;stroke:#000000;stroke-width:2;stroke-linecap:butt;stroke-linejoin:miter;stroke-opacity:1;marker-start:url(#Arrow1Lstart);marker-end:url(#Arrow1Lend);stroke-miterlimit:4;stroke-dasharray:none"
       d="M 527.14286,425.52305 161.42857,574.09448"
       id="path4410"
       transform="translate(0,308.2677)" />
    <path
       style="fill:none;stroke:#000000;stroke-width:2;stroke-linecap:butt;stroke-linejoin:miter;stroke-opacity:1;marker-start:url(#Arrow1Lstart);marker-end:url(#Arrow1Lend);stroke-miterlimit:4;stroke-dasharray:none"
       d="M 408.57143,574.09448 527.14286,425.52305"
       id="path4412"
       transform="translate(0,308.2677)" />
    <path
       style="fill:none;stroke:#000000;stroke-width:2;stroke-linecap:butt;stroke-linejoin:miter;stroke-opacity:1;marker-start:url(#Arrow1Lstart);marker-end:url(#Arrow1Lend);stroke-miterlimit:4;stroke-dasharray:none"
       d="M 640,574.09448 524.28571,426.95163"
       id="path4414"
       transform="translate(0,308.2677)" />
    <path
       style="fill:none;stroke:#000000;stroke-width:2;stroke-linecap:butt;stroke-linejoin:miter;stroke-opacity:1;marker-start:url(#Arrow1Lstart);marker-end:url(#Arrow1Lend);stroke-miterlimit:4;stroke-dasharray:none"
       d="M 888.57143,574.09448 524.28571,425.52305"
       id="path4416"
       transform="translate(0,308.2677)" />
    <text
       xml:space="preserve"
       style="font-size:40px;font-style:normal;font-variant:normal;font-weight:normal;font-stretch:normal;text-align:start;line-height:100%;writing-mode:lr-tb;text-anchor:start;fill:#800000;fill-opacity:1;stroke:#890000;font-family:Arial;-inkscape-font-specification:Arial;stroke-opacity:1"
       x="63.797432"
       y="558.07648"
       id="text5534"
       sodipodi:linespacing="100%"><tspan
         sodipodi:role="line"
         id="tspan5536"
         x="63.797432"
         y="558.07648">CIM</tspan></text>
    <text
       xml:space="preserve"
       style="font-size:40px;font-style:normal;font-variant:normal;font-weight:normal;font-stretch:normal;text-align:start;line-height:100%;writing-mode:lr-tb;text-anchor:start;fill:#800000;fill-opacity:1;stroke:#890000;stroke-opacity:1;font-family:Arial;-inkscape-font-specification:Arial"
       x="64.285713"
       y="812.36218"
       id="text5538"
       sodipodi:linespacing="100%"><tspan
         sodipodi:role="line"
         id="tspan5540"
         x="64.285713"
         y="812.36218">61850</tspan></text>
    <path
       style="fill:none;stroke:#890000;stroke-width:2;stroke-linecap:butt;stroke-linejoin:miter;stroke-opacity:1;stroke-miterlimit:4;stroke-dasharray:8, 2;stroke-dashoffset:0"
       d="m 141.42857,235.52305 794.28572,0"
       id="path5542"
       transform="translate(0,308.2677)" />
    <path
       style="fill:none;stroke:#890000;stroke-width:2;stroke-linecap:butt;stroke-linejoin:miter;stroke-miterlimit:4;stroke-opacity:1;stroke-dasharray:8, 2;stroke-dashoffset:0"
       d="m 182.85714,798.07647 750,0"
       id="path5544" />
  </g>
</svg>
