rule "frequency_low"
  when
    SystemFrequency(value<LowFrequency)
    and charger : Charger(canStop==true)
  then 
    charger.stop();
end

rule "frequency_high"
  when
    SystemFrequency(value>HighFrequency)
    and charger : Charger(canStart==true)
  then 
    charger.start();
end

rule "price_low"
  when
    PowerPrice(value<LowPrice) and
    charger : Charger(canStart==true)
  then 
    charger.start();
end

rule "price_high"
  when
    PowerPrice(value>HighPrice) and
    charger : Charger(canStop==true)
  then 
    charger.stop();
end

rule "schedule"
  when 
    charger : Charger() # charger present
  then
    charger.followSchedule(Schedule);
end
