rule "frequency_low"
  when
    SystemFrequency( value < Settings.LowFrequency )
    and charger : Charger( canStop == true )
  then 
    charger.stop();
end

rule "frequency_high"
  when
    SystemFrequency( value > Settings.HighFrequency )
    and charger : Charger( canStart == true )
  then 
    charger.start();
end

rule "price_low"
  when
    PowerPrice( value < Settings.LowPrice ) and 
    charger : Charger( canStart == true )
  then 
    charger.start();
end

rule "price_high"
  when
    PowerPrice( value > Settings.HighPrice ) and 
    charger : Charger( canStop == true )
  then 
    charger.stop();
end

rule "schedule"
  when 
    charger : Charger() # charger is present
  then
    charger.followSchedule( Settings.Schedule );
end
